{
  "__type__": "cc.Material",
  "_name": "ColorFloor - 004",
  "_objFlags": 0,
  "_native": "",
  "_effectAsset": {
    "__uuid__": "abc2cb62-7852-4525-a90d-d474487b88f2"
  },
  "_techniqueIndex": 0,
  "_techniqueData": {
    "0": {
      "props": {
        "diffuseColor": {
          "__type__": "cc.Color",
          "r": 202,
          "g": 202,
          "b": 202,
          "a": 255
        },
        "emissiveColor": {
          "__type__": "cc.Color",
          "r": 163,
          "g": 161,
          "b": 161,
          "a": 255
        },
        "specularColor": {
          "__type__": "cc.Color",
          "r": 255,
          "g": 255,
          "b": 255,
          "a": 255
        },
        "diffuseTexture": {
          "__uuid__": "3dbfa70f-3631-483e-8fb4-c61abd83ee41"
        },
        "emissiveTexture": {
          "__uuid__": "3dbfa70f-3631-483e-8fb4-c61abd83ee41"
        }
      },
      "defines": {
        "USE_ALPHA_TEST": false,
        "USE_DIFFUSE_TEXTURE": true,
        "USE_EMISSIVE": true,
        "USE_EMISSIVE_TEXTURE": true
      }
    }
  }
}