{
  "__type__": "cc.SpriteFrame",
  "content": {
    "name": "Jison_EN",
    "texture": "ba3f8531-2550-4052-aec2-cc33b25bf005",
    "atlas": "",
    "rect": [
      0,
      0,
      108,
      29
    ],
    "offset": [
      0,
      0
    ],
    "originalSize": [
      108,
      29
    ],
    "capInsets": [
      0,
      0,
      0,
      0
    ]
  }
}