{
  "__type__": "cc.SkeletonAnimationClip",
  "_name": "Fail",
  "_objFlags": 0,
  "_native": ".bin",
  "_duration": 4,
  "sample": 30,
  "speed": 1,
  "wrapMode": 2,
  "events": [],
  "description": {
    "AUS_character_bone_hand_L": {
      "position": {
        "offset": 0,
        "frameCount": 26
      },
      "quat": {
        "offset": 104,
        "frameCount": 70
      },
      "scale": {
        "offset": 454,
        "frameCount": 1
      }
    },
    "AUS_character_bone_hand_L/AUS_character_bone_finger_L_1": {
      "quat": {
        "offset": 458,
        "frameCount": 86
      },
      "scale": {
        "offset": 888,
        "frameCount": 1
      },
      "position": {
        "offset": 892,
        "frameCount": 1
      }
    },
    "AUS_character_bone_hand_L/AUS_character_bone_finger_L_1/AUS_character_bone_finger_L_2": {
      "quat": {
        "offset": 896,
        "frameCount": 87
      },
      "scale": {
        "offset": 1331,
        "frameCount": 1
      },
      "position": {
        "offset": 1335,
        "frameCount": 1
      }
    },
    "AUS_character_bone_hand_L/AUS_character_bone_finger_L_3": {
      "quat": {
        "offset": 1339,
        "frameCount": 80
      },
      "scale": {
        "offset": 1739,
        "frameCount": 1
      },
      "position": {
        "offset": 1743,
        "frameCount": 1
      }
    },
    "AUS_character_bone_hand_L/AUS_character_bone_finger_L_3/AUS_character_bone_finger_L_4": {
      "quat": {
        "offset": 1747,
        "frameCount": 78
      },
      "scale": {
        "offset": 2137,
        "frameCount": 1
      },
      "position": {
        "offset": 2141,
        "frameCount": 1
      }
    },
    "AUS_character_bone_hand_R": {
      "position": {
        "offset": 2145,
        "frameCount": 15
      },
      "quat": {
        "offset": 2205,
        "frameCount": 40
      },
      "scale": {
        "offset": 2405,
        "frameCount": 1
      }
    },
    "AUS_character_bone_hand_R/AUS_character_bone_finger_R_3": {
      "quat": {
        "offset": 2409,
        "frameCount": 61
      },
      "scale": {
        "offset": 2714,
        "frameCount": 1
      },
      "position": {
        "offset": 2718,
        "frameCount": 1
      }
    },
    "AUS_character_bone_hand_R/AUS_character_bone_finger_R_3/AUS_character_bone_finger_R_4": {
      "quat": {
        "offset": 2722,
        "frameCount": 60
      },
      "scale": {
        "offset": 3022,
        "frameCount": 1
      },
      "position": {
        "offset": 3026,
        "frameCount": 1
      }
    },
    "AUS_character_bone_hand_R/AUS_character_bone_finger_R_1": {
      "quat": {
        "offset": 3030,
        "frameCount": 65
      },
      "scale": {
        "offset": 3355,
        "frameCount": 1
      },
      "position": {
        "offset": 3359,
        "frameCount": 1
      }
    },
    "AUS_character_bone_hand_R/AUS_character_bone_finger_R_1/AUS_character_bone_finger_R_2": {
      "quat": {
        "offset": 3363,
        "frameCount": 65
      },
      "scale": {
        "offset": 3688,
        "frameCount": 1
      },
      "position": {
        "offset": 3692,
        "frameCount": 1
      }
    },
    "AUS_character_ctr_all/Point001/AUS_character_bone_body": {
      "position": {
        "offset": 3696,
        "frameCount": 2
      },
      "quat": {
        "offset": 3704,
        "frameCount": 46
      },
      "scale": {
        "offset": 3934,
        "frameCount": 1
      }
    },
    "AUS_character_ctr_all/Point001/AUS_character_bone_body/AUS_character_bone_head": {
      "quat": {
        "offset": 3938,
        "frameCount": 82
      },
      "scale": {
        "offset": 4348,
        "frameCount": 68
      },
      "position": {
        "offset": 4620,
        "frameCount": 1
      }
    },
    "AUS_character_ctr_all/Point001/AUS_character_bone_body/AUS_character_bone_leg_R_1": {
      "quat": {
        "offset": 4624,
        "frameCount": 86
      },
      "scale": {
        "offset": 5054,
        "frameCount": 1
      },
      "position": {
        "offset": 5058,
        "frameCount": 1
      }
    },
    "AUS_character_ctr_all/Point001/AUS_character_bone_body/AUS_character_bone_leg_R_1/AUS_character_bone_leg_R_2": {
      "quat": {
        "offset": 5062,
        "frameCount": 91
      },
      "scale": {
        "offset": 5517,
        "frameCount": 1
      },
      "position": {
        "offset": 5521,
        "frameCount": 1
      }
    },
    "AUS_character_ctr_all/Point001/AUS_character_bone_body/AUS_character_bone_leg_L_1": {
      "quat": {
        "offset": 5525,
        "frameCount": 84
      },
      "scale": {
        "offset": 5945,
        "frameCount": 1
      },
      "position": {
        "offset": 5949,
        "frameCount": 1
      }
    },
    "AUS_character_ctr_all/Point001/AUS_character_bone_body/AUS_character_bone_leg_L_1/AUS_character_bone_leg_L_2": {
      "quat": {
        "offset": 5953,
        "frameCount": 91
      },
      "scale": {
        "offset": 6408,
        "frameCount": 1
      },
      "position": {
        "offset": 6412,
        "frameCount": 1
      }
    },
    "AUS_character_bone_hand_R/AUS_character_bone_sword": {
      "quat": {
        "offset": 6416,
        "frameCount": 1
      },
      "scale": {
        "offset": 6421,
        "frameCount": 1
      },
      "position": {
        "offset": 6425,
        "frameCount": 1
      }
    },
    "AUS_character_ctr_all": {
      "quat": {
        "offset": 6429,
        "frameCount": 1
      },
      "scale": {
        "offset": 6434,
        "frameCount": 1
      },
      "position": {
        "offset": 6438,
        "frameCount": 1
      }
    },
    "AUS_character_ctr_all/Point001": {
      "quat": {
        "offset": 6442,
        "frameCount": 1
      },
      "scale": {
        "offset": 6447,
        "frameCount": 1
      },
      "position": {
        "offset": 6451,
        "frameCount": 1
      }
    },
    "AUS_character_ctr_all/Point001/AUS_character_bone_body/AUS_character_bone_head/AUS_character_bone_helmet": {
      "quat": {
        "offset": 6455,
        "frameCount": 1
      },
      "scale": {
        "offset": 6460,
        "frameCount": 1
      },
      "position": {
        "offset": 6464,
        "frameCount": 1
      }
    },
    "AUS_character_ctr_all/Point001/AUS_character_bone_body/AUS_character_bone_leg_R_1/AUS_character_bone_leg_R_2/AUS_character_bone_leg_R_3": {
      "quat": {
        "offset": 6468,
        "frameCount": 1
      },
      "scale": {
        "offset": 6473,
        "frameCount": 1
      },
      "position": {
        "offset": 6477,
        "frameCount": 1
      }
    },
    "AUS_character_ctr_all/Point001/AUS_character_bone_body/AUS_character_bone_leg_L_1/AUS_character_bone_leg_L_2/AUS_character_bone_leg_L_3": {
      "quat": {
        "offset": 6481,
        "frameCount": 1
      },
      "scale": {
        "offset": 6486,
        "frameCount": 1
      },
      "position": {
        "offset": 6490,
        "frameCount": 1
      }
    },
    "AUS_character_ctr_all/Point001/AUS_character_ctr_leg_L": {
      "quat": {
        "offset": 6494,
        "frameCount": 1
      },
      "scale": {
        "offset": 6499,
        "frameCount": 1
      },
      "position": {
        "offset": 6503,
        "frameCount": 1
      }
    },
    "AUS_character_ctr_all/Point001/AUS_character_ctr_leg_R": {
      "quat": {
        "offset": 6507,
        "frameCount": 1
      },
      "scale": {
        "offset": 6512,
        "frameCount": 1
      },
      "position": {
        "offset": 6516,
        "frameCount": 1
      }
    },
    "AUS_character_model": {
      "quat": {
        "offset": 6520,
        "frameCount": 1
      },
      "scale": {
        "offset": 6525,
        "frameCount": 1
      },
      "position": {
        "offset": 6529,
        "frameCount": 1
      }
    }
  }
}