{
  "__type__": "cc.SkeletonAnimationClip",
  "_name": "Fall",
  "_objFlags": 0,
  "_native": ".bin",
  "_duration": 1.375,
  "sample": 30,
  "speed": 1,
  "wrapMode": 2,
  "events": [],
  "description": {
    "AUS_character_bone_hand_L": {
      "position": {
        "offset": 0,
        "frameCount": 24
      },
      "quat": {
        "offset": 96,
        "frameCount": 31
      },
      "scale": {
        "offset": 251,
        "frameCount": 3
      }
    },
    "AUS_character_bone_hand_L/AUS_character_bone_finger_L_1": {
      "quat": {
        "offset": 263,
        "frameCount": 3
      },
      "scale": {
        "offset": 278,
        "frameCount": 1
      },
      "position": {
        "offset": 282,
        "frameCount": 1
      }
    },
    "AUS_character_bone_hand_L/AUS_character_bone_finger_L_1/AUS_character_bone_finger_L_2": {
      "quat": {
        "offset": 286,
        "frameCount": 3
      },
      "scale": {
        "offset": 301,
        "frameCount": 1
      },
      "position": {
        "offset": 305,
        "frameCount": 1
      }
    },
    "AUS_character_bone_hand_L/AUS_character_bone_finger_L_3": {
      "quat": {
        "offset": 309,
        "frameCount": 3
      },
      "scale": {
        "offset": 324,
        "frameCount": 1
      },
      "position": {
        "offset": 328,
        "frameCount": 1
      }
    },
    "AUS_character_bone_hand_L/AUS_character_bone_finger_L_3/AUS_character_bone_finger_L_4": {
      "quat": {
        "offset": 332,
        "frameCount": 3
      },
      "scale": {
        "offset": 347,
        "frameCount": 1
      },
      "position": {
        "offset": 351,
        "frameCount": 1
      }
    },
    "AUS_character_bone_hand_R": {
      "position": {
        "offset": 355,
        "frameCount": 29
      },
      "quat": {
        "offset": 471,
        "frameCount": 31
      },
      "scale": {
        "offset": 626,
        "frameCount": 3
      }
    },
    "AUS_character_bone_hand_R/AUS_character_bone_finger_R_3": {
      "quat": {
        "offset": 638,
        "frameCount": 3
      },
      "scale": {
        "offset": 653,
        "frameCount": 1
      },
      "position": {
        "offset": 657,
        "frameCount": 1
      }
    },
    "AUS_character_bone_hand_R/AUS_character_bone_finger_R_3/AUS_character_bone_finger_R_4": {
      "quat": {
        "offset": 661,
        "frameCount": 3
      },
      "scale": {
        "offset": 676,
        "frameCount": 1
      },
      "position": {
        "offset": 680,
        "frameCount": 1
      }
    },
    "AUS_character_bone_hand_R/AUS_character_bone_finger_R_1/AUS_character_bone_finger_R_2": {
      "quat": {
        "offset": 684,
        "frameCount": 3
      },
      "scale": {
        "offset": 699,
        "frameCount": 1
      },
      "position": {
        "offset": 703,
        "frameCount": 1
      }
    },
    "AUS_character_ctr_all/Point001": {
      "position": {
        "offset": 707,
        "frameCount": 24
      },
      "quat": {
        "offset": 803,
        "frameCount": 27
      },
      "scale": {
        "offset": 938,
        "frameCount": 1
      }
    },
    "AUS_character_ctr_all/Point001/AUS_character_bone_body": {
      "position": {
        "offset": 942,
        "frameCount": 4
      },
      "quat": {
        "offset": 958,
        "frameCount": 26
      },
      "scale": {
        "offset": 1088,
        "frameCount": 1
      }
    },
    "AUS_character_ctr_all/Point001/AUS_character_bone_body/AUS_character_bone_head": {
      "quat": {
        "offset": 1092,
        "frameCount": 31
      },
      "scale": {
        "offset": 1247,
        "frameCount": 1
      },
      "position": {
        "offset": 1251,
        "frameCount": 1
      }
    },
    "AUS_character_ctr_all/Point001/AUS_character_bone_body/AUS_character_bone_leg_R_1": {
      "quat": {
        "offset": 1255,
        "frameCount": 34
      },
      "scale": {
        "offset": 1425,
        "frameCount": 1
      },
      "position": {
        "offset": 1429,
        "frameCount": 1
      }
    },
    "AUS_character_ctr_all/Point001/AUS_character_bone_body/AUS_character_bone_leg_R_1/AUS_character_bone_leg_R_2": {
      "quat": {
        "offset": 1433,
        "frameCount": 33
      },
      "scale": {
        "offset": 1598,
        "frameCount": 1
      },
      "position": {
        "offset": 1602,
        "frameCount": 1
      }
    },
    "AUS_character_ctr_all/Point001/AUS_character_bone_body/AUS_character_bone_leg_L_1": {
      "quat": {
        "offset": 1606,
        "frameCount": 33
      },
      "scale": {
        "offset": 1771,
        "frameCount": 1
      },
      "position": {
        "offset": 1775,
        "frameCount": 1
      }
    },
    "AUS_character_ctr_all/Point001/AUS_character_bone_body/AUS_character_bone_leg_L_1/AUS_character_bone_leg_L_2": {
      "quat": {
        "offset": 1779,
        "frameCount": 34
      },
      "scale": {
        "offset": 1949,
        "frameCount": 1
      },
      "position": {
        "offset": 1953,
        "frameCount": 1
      }
    },
    "AUS_character_ctr_all/Point001/AUS_character_ctr_leg_L": {
      "position": {
        "offset": 1957,
        "frameCount": 24
      },
      "quat": {
        "offset": 2053,
        "frameCount": 1
      },
      "scale": {
        "offset": 2058,
        "frameCount": 1
      }
    },
    "AUS_character_ctr_all/Point001/AUS_character_ctr_leg_R": {
      "position": {
        "offset": 2062,
        "frameCount": 25
      },
      "quat": {
        "offset": 2162,
        "frameCount": 1
      },
      "scale": {
        "offset": 2167,
        "frameCount": 1
      }
    },
    "AUS_character_bone_hand_R/AUS_character_bone_finger_R_1": {
      "quat": {
        "offset": 2171,
        "frameCount": 1
      },
      "scale": {
        "offset": 2176,
        "frameCount": 1
      },
      "position": {
        "offset": 2180,
        "frameCount": 1
      }
    },
    "AUS_character_bone_hand_R/AUS_character_bone_sword": {
      "quat": {
        "offset": 2184,
        "frameCount": 1
      },
      "scale": {
        "offset": 2189,
        "frameCount": 1
      },
      "position": {
        "offset": 2193,
        "frameCount": 1
      }
    },
    "AUS_character_ctr_all": {
      "quat": {
        "offset": 2197,
        "frameCount": 1
      },
      "scale": {
        "offset": 2202,
        "frameCount": 1
      },
      "position": {
        "offset": 2206,
        "frameCount": 1
      }
    },
    "AUS_character_ctr_all/Point001/AUS_character_bone_body/AUS_character_bone_head/AUS_character_bone_helmet": {
      "quat": {
        "offset": 2210,
        "frameCount": 1
      },
      "scale": {
        "offset": 2215,
        "frameCount": 1
      },
      "position": {
        "offset": 2219,
        "frameCount": 1
      }
    },
    "AUS_character_ctr_all/Point001/AUS_character_bone_body/AUS_character_bone_leg_R_1/AUS_character_bone_leg_R_2/AUS_character_bone_leg_R_3": {
      "quat": {
        "offset": 2223,
        "frameCount": 1
      },
      "scale": {
        "offset": 2228,
        "frameCount": 1
      },
      "position": {
        "offset": 2232,
        "frameCount": 1
      }
    },
    "AUS_character_ctr_all/Point001/AUS_character_bone_body/AUS_character_bone_leg_L_1/AUS_character_bone_leg_L_2/AUS_character_bone_leg_L_3": {
      "quat": {
        "offset": 2236,
        "frameCount": 1
      },
      "scale": {
        "offset": 2241,
        "frameCount": 1
      },
      "position": {
        "offset": 2245,
        "frameCount": 1
      }
    },
    "AUS_character_model": {
      "quat": {
        "offset": 2249,
        "frameCount": 1
      },
      "scale": {
        "offset": 2254,
        "frameCount": 1
      },
      "position": {
        "offset": 2258,
        "frameCount": 1
      }
    }
  }
}