{
    "asset": {
        "generator": "FBX2glTF v0.9.7",
        "version": "2.0"
    },
    "scene": 0,
    "buffers": [
        {
            "byteLength": 326056,
            "uri": "buffer.bin"
        }
    ],
    "bufferViews": [
        {
            "buffer": 0,
            "byteLength": 116,
            "byteOffset": 0
        },
        {
            "buffer": 0,
            "byteLength": 348,
            "byteOffset": 116
        },
        {
            "buffer": 0,
            "byteLength": 464,
            "byteOffset": 464
        },
        {
            "buffer": 0,
            "byteLength": 464,
            "byteOffset": 928
        },
        {
            "buffer": 0,
            "byteLength": 348,
            "byteOffset": 1392
        },
        {
            "buffer": 0,
            "byteLength": 464,
            "byteOffset": 1740
        },
        {
            "buffer": 0,
            "byteLength": 348,
            "byteOffset": 2204
        },
        {
            "buffer": 0,
            "byteLength": 464,
            "byteOffset": 2552
        },
        {
            "buffer": 0,
            "byteLength": 464,
            "byteOffset": 3016
        },
        {
            "buffer": 0,
            "byteLength": 348,
            "byteOffset": 3480
        },
        {
            "buffer": 0,
            "byteLength": 464,
            "byteOffset": 3828
        },
        {
            "buffer": 0,
            "byteLength": 348,
            "byteOffset": 4292
        },
        {
            "buffer": 0,
            "byteLength": 464,
            "byteOffset": 4640
        },
        {
            "buffer": 0,
            "byteLength": 348,
            "byteOffset": 5104
        },
        {
            "buffer": 0,
            "byteLength": 464,
            "byteOffset": 5452
        },
        {
            "buffer": 0,
            "byteLength": 348,
            "byteOffset": 5916
        },
        {
            "buffer": 0,
            "byteLength": 464,
            "byteOffset": 6264
        },
        {
            "buffer": 0,
            "byteLength": 348,
            "byteOffset": 6728
        },
        {
            "buffer": 0,
            "byteLength": 464,
            "byteOffset": 7076
        },
        {
            "buffer": 0,
            "byteLength": 348,
            "byteOffset": 7540
        },
        {
            "buffer": 0,
            "byteLength": 464,
            "byteOffset": 7888
        },
        {
            "buffer": 0,
            "byteLength": 348,
            "byteOffset": 8352
        },
        {
            "buffer": 0,
            "byteLength": 464,
            "byteOffset": 8700
        },
        {
            "buffer": 0,
            "byteLength": 348,
            "byteOffset": 9164
        },
        {
            "buffer": 0,
            "byteLength": 464,
            "byteOffset": 9512
        },
        {
            "buffer": 0,
            "byteLength": 348,
            "byteOffset": 9976
        },
        {
            "buffer": 0,
            "byteLength": 464,
            "byteOffset": 10324
        },
        {
            "buffer": 0,
            "byteLength": 348,
            "byteOffset": 10788
        },
        {
            "buffer": 0,
            "byteLength": 464,
            "byteOffset": 11136
        },
        {
            "buffer": 0,
            "byteLength": 348,
            "byteOffset": 11600
        },
        {
            "buffer": 0,
            "byteLength": 464,
            "byteOffset": 11948
        },
        {
            "buffer": 0,
            "byteLength": 348,
            "byteOffset": 12412
        },
        {
            "buffer": 0,
            "byteLength": 464,
            "byteOffset": 12760
        },
        {
            "buffer": 0,
            "byteLength": 348,
            "byteOffset": 13224
        },
        {
            "buffer": 0,
            "byteLength": 464,
            "byteOffset": 13572
        },
        {
            "buffer": 0,
            "byteLength": 348,
            "byteOffset": 14036
        },
        {
            "buffer": 0,
            "byteLength": 464,
            "byteOffset": 14384
        },
        {
            "buffer": 0,
            "byteLength": 348,
            "byteOffset": 14848
        },
        {
            "buffer": 0,
            "byteLength": 464,
            "byteOffset": 15196
        },
        {
            "buffer": 0,
            "byteLength": 348,
            "byteOffset": 15660
        },
        {
            "buffer": 0,
            "byteLength": 464,
            "byteOffset": 16008
        },
        {
            "buffer": 0,
            "byteLength": 348,
            "byteOffset": 16472
        },
        {
            "buffer": 0,
            "byteLength": 464,
            "byteOffset": 16820
        },
        {
            "buffer": 0,
            "byteLength": 348,
            "byteOffset": 17284
        },
        {
            "buffer": 0,
            "byteLength": 464,
            "byteOffset": 17632
        },
        {
            "buffer": 0,
            "byteLength": 348,
            "byteOffset": 18096
        },
        {
            "buffer": 0,
            "byteLength": 464,
            "byteOffset": 18444
        },
        {
            "buffer": 0,
            "byteLength": 348,
            "byteOffset": 18908
        },
        {
            "buffer": 0,
            "byteLength": 464,
            "byteOffset": 19256
        },
        {
            "buffer": 0,
            "byteLength": 348,
            "byteOffset": 19720
        },
        {
            "buffer": 0,
            "byteLength": 464,
            "byteOffset": 20068
        },
        {
            "buffer": 0,
            "byteLength": 348,
            "byteOffset": 20532
        },
        {
            "buffer": 0,
            "byteLength": 464,
            "byteOffset": 20880
        },
        {
            "buffer": 0,
            "byteLength": 348,
            "byteOffset": 21344
        },
        {
            "buffer": 0,
            "byteLength": 464,
            "byteOffset": 21692
        },
        {
            "buffer": 0,
            "byteLength": 348,
            "byteOffset": 22156
        },
        {
            "buffer": 0,
            "byteLength": 464,
            "byteOffset": 22504
        },
        {
            "buffer": 0,
            "byteLength": 464,
            "byteOffset": 22968
        },
        {
            "buffer": 0,
            "byteLength": 464,
            "byteOffset": 23432
        },
        {
            "buffer": 0,
            "byteLength": 464,
            "byteOffset": 23896
        },
        {
            "buffer": 0,
            "byteLength": 464,
            "byteOffset": 24360
        },
        {
            "buffer": 0,
            "byteLength": 464,
            "byteOffset": 24824
        },
        {
            "buffer": 0,
            "byteLength": 464,
            "byteOffset": 25288
        },
        {
            "buffer": 0,
            "byteLength": 16344,
            "byteOffset": 25752,
            "target": 34963
        },
        {
            "buffer": 0,
            "byteLength": 19644,
            "byteOffset": 42096,
            "target": 34962
        },
        {
            "buffer": 0,
            "byteLength": 19644,
            "byteOffset": 61740,
            "target": 34962
        },
        {
            "buffer": 0,
            "byteLength": 13096,
            "byteOffset": 81384,
            "target": 34962
        },
        {
            "buffer": 0,
            "byteLength": 13096,
            "byteOffset": 94480,
            "target": 34962
        },
        {
            "buffer": 0,
            "byteLength": 13096,
            "byteOffset": 107576,
            "target": 34962
        },
        {
            "buffer": 0,
            "byteLength": 26192,
            "byteOffset": 120672,
            "target": 34962
        },
        {
            "buffer": 0,
            "byteLength": 1320,
            "byteOffset": 146864,
            "target": 34963
        },
        {
            "buffer": 0,
            "byteLength": 2184,
            "byteOffset": 148184,
            "target": 34962
        },
        {
            "buffer": 0,
            "byteLength": 2184,
            "byteOffset": 150368,
            "target": 34962
        },
        {
            "buffer": 0,
            "byteLength": 1456,
            "byteOffset": 152552,
            "target": 34962
        },
        {
            "buffer": 0,
            "byteLength": 1456,
            "byteOffset": 154008,
            "target": 34962
        },
        {
            "buffer": 0,
            "byteLength": 1456,
            "byteOffset": 155464,
            "target": 34962
        },
        {
            "buffer": 0,
            "byteLength": 2912,
            "byteOffset": 156920,
            "target": 34962
        },
        {
            "buffer": 0,
            "byteLength": 20544,
            "byteOffset": 159832,
            "target": 34963
        },
        {
            "buffer": 0,
            "byteLength": 23496,
            "byteOffset": 180376,
            "target": 34962
        },
        {
            "buffer": 0,
            "byteLength": 23496,
            "byteOffset": 203872,
            "target": 34962
        },
        {
            "buffer": 0,
            "byteLength": 15664,
            "byteOffset": 227368,
            "target": 34962
        },
        {
            "buffer": 0,
            "byteLength": 15664,
            "byteOffset": 243032,
            "target": 34962
        },
        {
            "buffer": 0,
            "byteLength": 15664,
            "byteOffset": 258696,
            "target": 34962
        },
        {
            "buffer": 0,
            "byteLength": 31328,
            "byteOffset": 274360,
            "target": 34962
        },
        {
            "buffer": 0,
            "byteLength": 1422,
            "byteOffset": 305688,
            "target": 34963
        },
        {
            "buffer": 0,
            "byteLength": 3060,
            "byteOffset": 307112,
            "target": 34962
        },
        {
            "buffer": 0,
            "byteLength": 3060,
            "byteOffset": 310172,
            "target": 34962
        },
        {
            "buffer": 0,
            "byteLength": 2040,
            "byteOffset": 313232,
            "target": 34962
        },
        {
            "buffer": 0,
            "byteLength": 2040,
            "byteOffset": 315272,
            "target": 34962
        },
        {
            "buffer": 0,
            "byteLength": 2040,
            "byteOffset": 317312,
            "target": 34962
        },
        {
            "buffer": 0,
            "byteLength": 4080,
            "byteOffset": 319352,
            "target": 34962
        },
        {
            "buffer": 0,
            "byteLength": 832,
            "byteOffset": 323432
        },
        {
            "buffer": 0,
            "byteLength": 576,
            "byteOffset": 324264
        },
        {
            "buffer": 0,
            "byteLength": 1152,
            "byteOffset": 324840
        },
        {
            "buffer": 0,
            "byteLength": 64,
            "byteOffset": 325992
        }
    ],
    "scenes": [
        {
            "name": "Root Scene",
            "nodes": [
                0
            ]
        }
    ],
    "accessors": [
        {
            "componentType": 5126,
            "type": "SCALAR",
            "count": 29,
            "bufferView": 0,
            "byteOffset": 0,
            "min": [
                0.0
            ],
            "max": [
                1.16666662693024
            ]
        },
        {
            "componentType": 5126,
            "type": "VEC3",
            "count": 29,
            "bufferView": 1,
            "byteOffset": 0
        },
        {
            "componentType": 5126,
            "type": "VEC4",
            "count": 29,
            "bufferView": 2,
            "byteOffset": 0
        },
        {
            "componentType": 5126,
            "type": "VEC4",
            "count": 29,
            "bufferView": 3,
            "byteOffset": 0
        },
        {
            "componentType": 5126,
            "type": "VEC3",
            "count": 29,
            "bufferView": 4,
            "byteOffset": 0
        },
        {
            "componentType": 5126,
            "type": "VEC4",
            "count": 29,
            "bufferView": 5,
            "byteOffset": 0
        },
        {
            "componentType": 5126,
            "type": "VEC3",
            "count": 29,
            "bufferView": 6,
            "byteOffset": 0
        },
        {
            "componentType": 5126,
            "type": "VEC4",
            "count": 29,
            "bufferView": 7,
            "byteOffset": 0
        },
        {
            "componentType": 5126,
            "type": "VEC4",
            "count": 29,
            "bufferView": 8,
            "byteOffset": 0
        },
        {
            "componentType": 5126,
            "type": "VEC3",
            "count": 29,
            "bufferView": 9,
            "byteOffset": 0
        },
        {
            "componentType": 5126,
            "type": "VEC4",
            "count": 29,
            "bufferView": 10,
            "byteOffset": 0
        },
        {
            "componentType": 5126,
            "type": "VEC3",
            "count": 29,
            "bufferView": 11,
            "byteOffset": 0
        },
        {
            "componentType": 5126,
            "type": "VEC4",
            "count": 29,
            "bufferView": 12,
            "byteOffset": 0
        },
        {
            "componentType": 5126,
            "type": "VEC3",
            "count": 29,
            "bufferView": 13,
            "byteOffset": 0
        },
        {
            "componentType": 5126,
            "type": "VEC4",
            "count": 29,
            "bufferView": 14,
            "byteOffset": 0
        },
        {
            "componentType": 5126,
            "type": "VEC3",
            "count": 29,
            "bufferView": 15,
            "byteOffset": 0
        },
        {
            "componentType": 5126,
            "type": "VEC4",
            "count": 29,
            "bufferView": 16,
            "byteOffset": 0
        },
        {
            "componentType": 5126,
            "type": "VEC3",
            "count": 29,
            "bufferView": 17,
            "byteOffset": 0
        },
        {
            "componentType": 5126,
            "type": "VEC4",
            "count": 29,
            "bufferView": 18,
            "byteOffset": 0
        },
        {
            "componentType": 5126,
            "type": "VEC3",
            "count": 29,
            "bufferView": 19,
            "byteOffset": 0
        },
        {
            "componentType": 5126,
            "type": "VEC4",
            "count": 29,
            "bufferView": 20,
            "byteOffset": 0
        },
        {
            "componentType": 5126,
            "type": "VEC3",
            "count": 29,
            "bufferView": 21,
            "byteOffset": 0
        },
        {
            "componentType": 5126,
            "type": "VEC4",
            "count": 29,
            "bufferView": 22,
            "byteOffset": 0
        },
        {
            "componentType": 5126,
            "type": "VEC3",
            "count": 29,
            "bufferView": 23,
            "byteOffset": 0
        },
        {
            "componentType": 5126,
            "type": "VEC4",
            "count": 29,
            "bufferView": 24,
            "byteOffset": 0
        },
        {
            "componentType": 5126,
            "type": "VEC3",
            "count": 29,
            "bufferView": 25,
            "byteOffset": 0
        },
        {
            "componentType": 5126,
            "type": "VEC4",
            "count": 29,
            "bufferView": 26,
            "byteOffset": 0
        },
        {
            "componentType": 5126,
            "type": "VEC3",
            "count": 29,
            "bufferView": 27,
            "byteOffset": 0
        },
        {
            "componentType": 5126,
            "type": "VEC4",
            "count": 29,
            "bufferView": 28,
            "byteOffset": 0
        },
        {
            "componentType": 5126,
            "type": "VEC3",
            "count": 29,
            "bufferView": 29,
            "byteOffset": 0
        },
        {
            "componentType": 5126,
            "type": "VEC4",
            "count": 29,
            "bufferView": 30,
            "byteOffset": 0
        },
        {
            "componentType": 5126,
            "type": "VEC3",
            "count": 29,
            "bufferView": 31,
            "byteOffset": 0
        },
        {
            "componentType": 5126,
            "type": "VEC4",
            "count": 29,
            "bufferView": 32,
            "byteOffset": 0
        },
        {
            "componentType": 5126,
            "type": "VEC3",
            "count": 29,
            "bufferView": 33,
            "byteOffset": 0
        },
        {
            "componentType": 5126,
            "type": "VEC4",
            "count": 29,
            "bufferView": 34,
            "byteOffset": 0
        },
        {
            "componentType": 5126,
            "type": "VEC3",
            "count": 29,
            "bufferView": 35,
            "byteOffset": 0
        },
        {
            "componentType": 5126,
            "type": "VEC4",
            "count": 29,
            "bufferView": 36,
            "byteOffset": 0
        },
        {
            "componentType": 5126,
            "type": "VEC3",
            "count": 29,
            "bufferView": 37,
            "byteOffset": 0
        },
        {
            "componentType": 5126,
            "type": "VEC4",
            "count": 29,
            "bufferView": 38,
            "byteOffset": 0
        },
        {
            "componentType": 5126,
            "type": "VEC3",
            "count": 29,
            "bufferView": 39,
            "byteOffset": 0
        },
        {
            "componentType": 5126,
            "type": "VEC4",
            "count": 29,
            "bufferView": 40,
            "byteOffset": 0
        },
        {
            "componentType": 5126,
            "type": "VEC3",
            "count": 29,
            "bufferView": 41,
            "byteOffset": 0
        },
        {
            "componentType": 5126,
            "type": "VEC4",
            "count": 29,
            "bufferView": 42,
            "byteOffset": 0
        },
        {
            "componentType": 5126,
            "type": "VEC3",
            "count": 29,
            "bufferView": 43,
            "byteOffset": 0
        },
        {
            "componentType": 5126,
            "type": "VEC4",
            "count": 29,
            "bufferView": 44,
            "byteOffset": 0
        },
        {
            "componentType": 5126,
            "type": "VEC3",
            "count": 29,
            "bufferView": 45,
            "byteOffset": 0
        },
        {
            "componentType": 5126,
            "type": "VEC4",
            "count": 29,
            "bufferView": 46,
            "byteOffset": 0
        },
        {
            "componentType": 5126,
            "type": "VEC3",
            "count": 29,
            "bufferView": 47,
            "byteOffset": 0
        },
        {
            "componentType": 5126,
            "type": "VEC4",
            "count": 29,
            "bufferView": 48,
            "byteOffset": 0
        },
        {
            "componentType": 5126,
            "type": "VEC3",
            "count": 29,
            "bufferView": 49,
            "byteOffset": 0
        },
        {
            "componentType": 5126,
            "type": "VEC4",
            "count": 29,
            "bufferView": 50,
            "byteOffset": 0
        },
        {
            "componentType": 5126,
            "type": "VEC3",
            "count": 29,
            "bufferView": 51,
            "byteOffset": 0
        },
        {
            "componentType": 5126,
            "type": "VEC4",
            "count": 29,
            "bufferView": 52,
            "byteOffset": 0
        },
        {
            "componentType": 5126,
            "type": "VEC3",
            "count": 29,
            "bufferView": 53,
            "byteOffset": 0
        },
        {
            "componentType": 5126,
            "type": "VEC4",
            "count": 29,
            "bufferView": 54,
            "byteOffset": 0
        },
        {
            "componentType": 5126,
            "type": "VEC3",
            "count": 29,
            "bufferView": 55,
            "byteOffset": 0
        },
        {
            "componentType": 5126,
            "type": "VEC4",
            "count": 29,
            "bufferView": 56,
            "byteOffset": 0
        },
        {
            "componentType": 5126,
            "type": "VEC4",
            "count": 29,
            "bufferView": 57,
            "byteOffset": 0
        },
        {
            "componentType": 5126,
            "type": "VEC4",
            "count": 29,
            "bufferView": 58,
            "byteOffset": 0
        },
        {
            "componentType": 5126,
            "type": "VEC4",
            "count": 29,
            "bufferView": 59,
            "byteOffset": 0
        },
        {
            "componentType": 5126,
            "type": "VEC4",
            "count": 29,
            "bufferView": 60,
            "byteOffset": 0
        },
        {
            "componentType": 5126,
            "type": "VEC4",
            "count": 29,
            "bufferView": 61,
            "byteOffset": 0
        },
        {
            "componentType": 5126,
            "type": "VEC4",
            "count": 29,
            "bufferView": 62,
            "byteOffset": 0
        },
        {
            "componentType": 5123,
            "type": "SCALAR",
            "count": 8172,
            "bufferView": 63,
            "byteOffset": 0
        },
        {
            "componentType": 5126,
            "type": "VEC3",
            "count": 1637,
            "bufferView": 64,
            "byteOffset": 0,
            "min": [
                -0.00805865041911602,
                -1.35396003315691e-05,
                -0.00998892728239298
            ],
            "max": [
                0.00806283857673407,
                0.0279839802533388,
                0.0099889300763607
            ]
        },
        {
            "componentType": 5126,
            "type": "VEC3",
            "count": 1637,
            "bufferView": 65,
            "byteOffset": 0
        },
        {
            "componentType": 5126,
            "type": "VEC2",
            "count": 1637,
            "bufferView": 66,
            "byteOffset": 0
        },
        {
            "componentType": 5126,
            "type": "VEC2",
            "count": 1637,
            "bufferView": 67,
            "byteOffset": 0
        },
        {
            "componentType": 5123,
            "type": "VEC4",
            "count": 1637,
            "bufferView": 68,
            "byteOffset": 0
        },
        {
            "componentType": 5126,
            "type": "VEC4",
            "count": 1637,
            "bufferView": 69,
            "byteOffset": 0
        },
        {
            "componentType": 5123,
            "type": "SCALAR",
            "count": 660,
            "bufferView": 70,
            "byteOffset": 0
        },
        {
            "componentType": 5126,
            "type": "VEC3",
            "count": 182,
            "bufferView": 71,
            "byteOffset": 0,
            "min": [
                -0.00255490466952324,
                0.0155833913013339,
                -0.000937609351240098
            ],
            "max": [
                0.00255490466952324,
                0.0165759548544884,
                0.00626365281641483
            ]
        },
        {
            "componentType": 5126,
            "type": "VEC3",
            "count": 182,
            "bufferView": 72,
            "byteOffset": 0
        },
        {
            "componentType": 5126,
            "type": "VEC2",
            "count": 182,
            "bufferView": 73,
            "byteOffset": 0
        },
        {
            "componentType": 5126,
            "type": "VEC2",
            "count": 182,
            "bufferView": 74,
            "byteOffset": 0
        },
        {
            "componentType": 5123,
            "type": "VEC4",
            "count": 182,
            "bufferView": 75,
            "byteOffset": 0
        },
        {
            "componentType": 5126,
            "type": "VEC4",
            "count": 182,
            "bufferView": 76,
            "byteOffset": 0
        },
        {
            "componentType": 5123,
            "type": "SCALAR",
            "count": 10272,
            "bufferView": 77,
            "byteOffset": 0
        },
        {
            "componentType": 5126,
            "type": "VEC3",
            "count": 1958,
            "bufferView": 78,
            "byteOffset": 0,
            "min": [
                -0.0194490570574999,
                0.0141341779381037,
                -0.00172056851442903
            ],
            "max": [
                0.0194603875279427,
                0.0171862114220858,
                0.00441426876932383
            ]
        },
        {
            "componentType": 5126,
            "type": "VEC3",
            "count": 1958,
            "bufferView": 79,
            "byteOffset": 0
        },
        {
            "componentType": 5126,
            "type": "VEC2",
            "count": 1958,
            "bufferView": 80,
            "byteOffset": 0
        },
        {
            "componentType": 5126,
            "type": "VEC2",
            "count": 1958,
            "bufferView": 81,
            "byteOffset": 0
        },
        {
            "componentType": 5123,
            "type": "VEC4",
            "count": 1958,
            "bufferView": 82,
            "byteOffset": 0
        },
        {
            "componentType": 5126,
            "type": "VEC4",
            "count": 1958,
            "bufferView": 83,
            "byteOffset": 0
        },
        {
            "componentType": 5123,
            "type": "SCALAR",
            "count": 711,
            "bufferView": 84,
            "byteOffset": 0
        },
        {
            "componentType": 5126,
            "type": "VEC3",
            "count": 255,
            "bufferView": 85,
            "byteOffset": 0,
            "min": [
                -0.0167682338505983,
                2.18844415940112e-05,
                0.0076284003444016
            ],
            "max": [
                -0.0117560876533389,
                0.00741931889206171,
                0.0339303091168404
            ]
        },
        {
            "componentType": 5126,
            "type": "VEC3",
            "count": 255,
            "bufferView": 86,
            "byteOffset": 0
        },
        {
            "componentType": 5126,
            "type": "VEC2",
            "count": 255,
            "bufferView": 87,
            "byteOffset": 0
        },
        {
            "componentType": 5126,
            "type": "VEC2",
            "count": 255,
            "bufferView": 88,
            "byteOffset": 0
        },
        {
            "componentType": 5123,
            "type": "VEC4",
            "count": 255,
            "bufferView": 89,
            "byteOffset": 0
        },
        {
            "componentType": 5126,
            "type": "VEC4",
            "count": 255,
            "bufferView": 90,
            "byteOffset": 0
        },
        {
            "componentType": 5126,
            "type": "MAT4",
            "count": 13,
            "bufferView": 91,
            "byteOffset": 0
        },
        {
            "componentType": 5126,
            "type": "MAT4",
            "count": 9,
            "bufferView": 92,
            "byteOffset": 0
        },
        {
            "componentType": 5126,
            "type": "MAT4",
            "count": 18,
            "bufferView": 93,
            "byteOffset": 0
        },
        {
            "componentType": 5126,
            "type": "MAT4",
            "count": 1,
            "bufferView": 94,
            "byteOffset": 0
        }
    ],
    "images": [
        {
            "name": "file54",
            "uri": "data:image/png;base64,iVBORw0KGgoAAAANSUhEUgAAAAEAAAABCAYAAAAfFcSJAAAADUlEQVR42mP8/5+hHgAHggJ/PchI7wAAAABJRU5ErkJggg=="
        },
        {
            "name": "file47",
            "uri": "data:image/png;base64,iVBORw0KGgoAAAANSUhEUgAAAAEAAAABCAYAAAAfFcSJAAAADUlEQVR42mP8/5+hHgAHggJ/PchI7wAAAABJRU5ErkJggg=="
        }
    ],
    "samplers": [
        {}
    ],
    "textures": [
        {
            "name": "file54",
            "sampler": 0,
            "source": 0
        },
        {
            "name": "file47",
            "sampler": 0,
            "source": 1
        }
    ],
    "materials": [
        {
            "name": "lambert2",
            "alphaMode": "OPAQUE",
            "extras": {
                "fromFBX": {
                    "shadingModel": "Lambert",
                    "isTruePBR": false
                }
            },
            "pbrMetallicRoughness": {
                "baseColorTexture": {
                    "index": 0,
                    "texCoord": 0
                },
                "baseColorFactor": [
                    0.800000011920929,
                    0.800000011920929,
                    0.800000011920929,
                    1.0
                ],
                "metallicFactor": 0.200000002980232,
                "roughnessFactor": 0.800000011920929
            }
        },
        {
            "name": "M_weapon_katana1",
            "alphaMode": "OPAQUE",
            "extras": {
                "fromFBX": {
                    "shadingModel": "Lambert",
                    "isTruePBR": false
                }
            },
            "pbrMetallicRoughness": {
                "baseColorTexture": {
                    "index": 1,
                    "texCoord": 0
                },
                "baseColorFactor": [
                    0.800000011920929,
                    0.800000011920929,
                    0.800000011920929,
                    1.0
                ],
                "metallicFactor": 0.200000002980232,
                "roughnessFactor": 0.800000011920929
            }
        }
    ],
    "meshes": [
        {
            "name": "AmongUS",
            "primitives": [
                {
                    "material": 0,
                    "mode": 4,
                    "attributes": {
                        "JOINTS_0": 68,
                        "NORMAL": 65,
                        "POSITION": 64,
                        "TEXCOORD_0": 66,
                        "TEXCOORD_1": 67,
                        "WEIGHTS_0": 69
                    },
                    "indices": 63
                }
            ]
        },
        {
            "name": "Luoi",
            "primitives": [
                {
                    "material": 0,
                    "mode": 4,
                    "attributes": {
                        "JOINTS_0": 75,
                        "NORMAL": 72,
                        "POSITION": 71,
                        "TEXCOORD_0": 73,
                        "TEXCOORD_1": 74,
                        "WEIGHTS_0": 76
                    },
                    "indices": 70
                }
            ]
        },
        {
            "name": "Hand3",
            "primitives": [
                {
                    "material": 0,
                    "mode": 4,
                    "attributes": {
                        "JOINTS_0": 82,
                        "NORMAL": 79,
                        "POSITION": 78,
                        "TEXCOORD_0": 80,
                        "TEXCOORD_1": 81,
                        "WEIGHTS_0": 83
                    },
                    "indices": 77
                }
            ]
        },
        {
            "name": "weapon_katana",
            "primitives": [
                {
                    "material": 1,
                    "mode": 4,
                    "attributes": {
                        "JOINTS_0": 89,
                        "NORMAL": 86,
                        "POSITION": 85,
                        "TEXCOORD_0": 87,
                        "TEXCOORD_1": 88,
                        "WEIGHTS_0": 90
                    },
                    "indices": 84
                }
            ]
        }
    ],
    "skins": [
        {
            "joints": [
                6,
                7,
                8,
                9,
                10,
                35,
                46,
                47,
                48,
                50,
                51,
                52,
                11
            ],
            "inverseBindMatrices": 91,
            "skeleton": 6
        },
        {
            "joints": [
                37,
                38,
                39,
                40,
                41,
                42,
                43,
                44,
                45
            ],
            "inverseBindMatrices": 92,
            "skeleton": 37
        },
        {
            "joints": [
                12,
                13,
                14,
                15,
                16,
                17,
                18,
                19,
                20,
                21,
                22,
                23,
                24,
                25,
                26,
                27,
                28,
                29
            ],
            "inverseBindMatrices": 93,
            "skeleton": 12
        },
        {
            "joints": [
                31
            ],
            "inverseBindMatrices": 94,
            "skeleton": 31
        }
    ],
    "animations": [
        {
            "name": "Katana-Attack",
            "channels": [
                {
                    "sampler": 0,
                    "target": {
                        "node": 6,
                        "path": "translation"
                    }
                },
                {
                    "sampler": 1,
                    "target": {
                        "node": 6,
                        "path": "rotation"
                    }
                },
                {
                    "sampler": 2,
                    "target": {
                        "node": 7,
                        "path": "rotation"
                    }
                },
                {
                    "sampler": 3,
                    "target": {
                        "node": 8,
                        "path": "translation"
                    }
                },
                {
                    "sampler": 4,
                    "target": {
                        "node": 8,
                        "path": "rotation"
                    }
                },
                {
                    "sampler": 5,
                    "target": {
                        "node": 10,
                        "path": "translation"
                    }
                },
                {
                    "sampler": 6,
                    "target": {
                        "node": 10,
                        "path": "rotation"
                    }
                },
                {
                    "sampler": 7,
                    "target": {
                        "node": 11,
                        "path": "rotation"
                    }
                },
                {
                    "sampler": 8,
                    "target": {
                        "node": 12,
                        "path": "translation"
                    }
                },
                {
                    "sampler": 9,
                    "target": {
                        "node": 12,
                        "path": "rotation"
                    }
                },
                {
                    "sampler": 10,
                    "target": {
                        "node": 13,
                        "path": "translation"
                    }
                },
                {
                    "sampler": 11,
                    "target": {
                        "node": 13,
                        "path": "rotation"
                    }
                },
                {
                    "sampler": 12,
                    "target": {
                        "node": 14,
                        "path": "translation"
                    }
                },
                {
                    "sampler": 13,
                    "target": {
                        "node": 14,
                        "path": "rotation"
                    }
                },
                {
                    "sampler": 14,
                    "target": {
                        "node": 15,
                        "path": "translation"
                    }
                },
                {
                    "sampler": 15,
                    "target": {
                        "node": 15,
                        "path": "rotation"
                    }
                },
                {
                    "sampler": 16,
                    "target": {
                        "node": 16,
                        "path": "translation"
                    }
                },
                {
                    "sampler": 17,
                    "target": {
                        "node": 16,
                        "path": "rotation"
                    }
                },
                {
                    "sampler": 18,
                    "target": {
                        "node": 17,
                        "path": "translation"
                    }
                },
                {
                    "sampler": 19,
                    "target": {
                        "node": 17,
                        "path": "rotation"
                    }
                },
                {
                    "sampler": 20,
                    "target": {
                        "node": 18,
                        "path": "translation"
                    }
                },
                {
                    "sampler": 21,
                    "target": {
                        "node": 18,
                        "path": "rotation"
                    }
                },
                {
                    "sampler": 22,
                    "target": {
                        "node": 19,
                        "path": "translation"
                    }
                },
                {
                    "sampler": 23,
                    "target": {
                        "node": 19,
                        "path": "rotation"
                    }
                },
                {
                    "sampler": 24,
                    "target": {
                        "node": 20,
                        "path": "translation"
                    }
                },
                {
                    "sampler": 25,
                    "target": {
                        "node": 20,
                        "path": "rotation"
                    }
                },
                {
                    "sampler": 26,
                    "target": {
                        "node": 21,
                        "path": "translation"
                    }
                },
                {
                    "sampler": 27,
                    "target": {
                        "node": 21,
                        "path": "rotation"
                    }
                },
                {
                    "sampler": 28,
                    "target": {
                        "node": 22,
                        "path": "translation"
                    }
                },
                {
                    "sampler": 29,
                    "target": {
                        "node": 22,
                        "path": "rotation"
                    }
                },
                {
                    "sampler": 30,
                    "target": {
                        "node": 23,
                        "path": "translation"
                    }
                },
                {
                    "sampler": 31,
                    "target": {
                        "node": 23,
                        "path": "rotation"
                    }
                },
                {
                    "sampler": 32,
                    "target": {
                        "node": 24,
                        "path": "translation"
                    }
                },
                {
                    "sampler": 33,
                    "target": {
                        "node": 24,
                        "path": "rotation"
                    }
                },
                {
                    "sampler": 34,
                    "target": {
                        "node": 25,
                        "path": "translation"
                    }
                },
                {
                    "sampler": 35,
                    "target": {
                        "node": 25,
                        "path": "rotation"
                    }
                },
                {
                    "sampler": 36,
                    "target": {
                        "node": 26,
                        "path": "translation"
                    }
                },
                {
                    "sampler": 37,
                    "target": {
                        "node": 26,
                        "path": "rotation"
                    }
                },
                {
                    "sampler": 38,
                    "target": {
                        "node": 27,
                        "path": "translation"
                    }
                },
                {
                    "sampler": 39,
                    "target": {
                        "node": 27,
                        "path": "rotation"
                    }
                },
                {
                    "sampler": 40,
                    "target": {
                        "node": 28,
                        "path": "translation"
                    }
                },
                {
                    "sampler": 41,
                    "target": {
                        "node": 28,
                        "path": "rotation"
                    }
                },
                {
                    "sampler": 42,
                    "target": {
                        "node": 29,
                        "path": "translation"
                    }
                },
                {
                    "sampler": 43,
                    "target": {
                        "node": 29,
                        "path": "rotation"
                    }
                },
                {
                    "sampler": 44,
                    "target": {
                        "node": 30,
                        "path": "translation"
                    }
                },
                {
                    "sampler": 45,
                    "target": {
                        "node": 30,
                        "path": "rotation"
                    }
                },
                {
                    "sampler": 46,
                    "target": {
                        "node": 31,
                        "path": "translation"
                    }
                },
                {
                    "sampler": 47,
                    "target": {
                        "node": 31,
                        "path": "rotation"
                    }
                },
                {
                    "sampler": 48,
                    "target": {
                        "node": 32,
                        "path": "translation"
                    }
                },
                {
                    "sampler": 49,
                    "target": {
                        "node": 32,
                        "path": "rotation"
                    }
                },
                {
                    "sampler": 50,
                    "target": {
                        "node": 33,
                        "path": "translation"
                    }
                },
                {
                    "sampler": 51,
                    "target": {
                        "node": 33,
                        "path": "rotation"
                    }
                },
                {
                    "sampler": 52,
                    "target": {
                        "node": 34,
                        "path": "translation"
                    }
                },
                {
                    "sampler": 53,
                    "target": {
                        "node": 34,
                        "path": "rotation"
                    }
                },
                {
                    "sampler": 54,
                    "target": {
                        "node": 35,
                        "path": "translation"
                    }
                },
                {
                    "sampler": 55,
                    "target": {
                        "node": 35,
                        "path": "rotation"
                    }
                },
                {
                    "sampler": 56,
                    "target": {
                        "node": 46,
                        "path": "rotation"
                    }
                },
                {
                    "sampler": 57,
                    "target": {
                        "node": 47,
                        "path": "rotation"
                    }
                },
                {
                    "sampler": 58,
                    "target": {
                        "node": 48,
                        "path": "rotation"
                    }
                },
                {
                    "sampler": 59,
                    "target": {
                        "node": 50,
                        "path": "rotation"
                    }
                },
                {
                    "sampler": 60,
                    "target": {
                        "node": 51,
                        "path": "rotation"
                    }
                },
                {
                    "sampler": 61,
                    "target": {
                        "node": 52,
                        "path": "rotation"
                    }
                }
            ],
            "samplers": [
                {
                    "input": 0,
                    "interpolation": "LINEAR",
                    "output": 1
                },
                {
                    "input": 0,
                    "interpolation": "LINEAR",
                    "output": 2
                },
                {
                    "input": 0,
                    "interpolation": "LINEAR",
                    "output": 3
                },
                {
                    "input": 0,
                    "interpolation": "LINEAR",
                    "output": 4
                },
                {
                    "input": 0,
                    "interpolation": "LINEAR",
                    "output": 5
                },
                {
                    "input": 0,
                    "interpolation": "LINEAR",
                    "output": 6
                },
                {
                    "input": 0,
                    "interpolation": "LINEAR",
                    "output": 7
                },
                {
                    "input": 0,
                    "interpolation": "LINEAR",
                    "output": 8
                },
                {
                    "input": 0,
                    "interpolation": "LINEAR",
                    "output": 9
                },
                {
                    "input": 0,
                    "interpolation": "LINEAR",
                    "output": 10
                },
                {
                    "input": 0,
                    "interpolation": "LINEAR",
                    "output": 11
                },
                {
                    "input": 0,
                    "interpolation": "LINEAR",
                    "output": 12
                },
                {
                    "input": 0,
                    "interpolation": "LINEAR",
                    "output": 13
                },
                {
                    "input": 0,
                    "interpolation": "LINEAR",
                    "output": 14
                },
                {
                    "input": 0,
                    "interpolation": "LINEAR",
                    "output": 15
                },
                {
                    "input": 0,
                    "interpolation": "LINEAR",
                    "output": 16
                },
                {
                    "input": 0,
                    "interpolation": "LINEAR",
                    "output": 17
                },
                {
                    "input": 0,
                    "interpolation": "LINEAR",
                    "output": 18
                },
                {
                    "input": 0,
                    "interpolation": "LINEAR",
                    "output": 19
                },
                {
                    "input": 0,
                    "interpolation": "LINEAR",
                    "output": 20
                },
                {
                    "input": 0,
                    "interpolation": "LINEAR",
                    "output": 21
                },
                {
                    "input": 0,
                    "interpolation": "LINEAR",
                    "output": 22
                },
                {
                    "input": 0,
                    "interpolation": "LINEAR",
                    "output": 23
                },
                {
                    "input": 0,
                    "interpolation": "LINEAR",
                    "output": 24
                },
                {
                    "input": 0,
                    "interpolation": "LINEAR",
                    "output": 25
                },
                {
                    "input": 0,
                    "interpolation": "LINEAR",
                    "output": 26
                },
                {
                    "input": 0,
                    "interpolation": "LINEAR",
                    "output": 27
                },
                {
                    "input": 0,
                    "interpolation": "LINEAR",
                    "output": 28
                },
                {
                    "input": 0,
                    "interpolation": "LINEAR",
                    "output": 29
                },
                {
                    "input": 0,
                    "interpolation": "LINEAR",
                    "output": 30
                },
                {
                    "input": 0,
                    "interpolation": "LINEAR",
                    "output": 31
                },
                {
                    "input": 0,
                    "interpolation": "LINEAR",
                    "output": 32
                },
                {
                    "input": 0,
                    "interpolation": "LINEAR",
                    "output": 33
                },
                {
                    "input": 0,
                    "interpolation": "LINEAR",
                    "output": 34
                },
                {
                    "input": 0,
                    "interpolation": "LINEAR",
                    "output": 35
                },
                {
                    "input": 0,
                    "interpolation": "LINEAR",
                    "output": 36
                },
                {
                    "input": 0,
                    "interpolation": "LINEAR",
                    "output": 37
                },
                {
                    "input": 0,
                    "interpolation": "LINEAR",
                    "output": 38
                },
                {
                    "input": 0,
                    "interpolation": "LINEAR",
                    "output": 39
                },
                {
                    "input": 0,
                    "interpolation": "LINEAR",
                    "output": 40
                },
                {
                    "input": 0,
                    "interpolation": "LINEAR",
                    "output": 41
                },
                {
                    "input": 0,
                    "interpolation": "LINEAR",
                    "output": 42
                },
                {
                    "input": 0,
                    "interpolation": "LINEAR",
                    "output": 43
                },
                {
                    "input": 0,
                    "interpolation": "LINEAR",
                    "output": 44
                },
                {
                    "input": 0,
                    "interpolation": "LINEAR",
                    "output": 45
                },
                {
                    "input": 0,
                    "interpolation": "LINEAR",
                    "output": 46
                },
                {
                    "input": 0,
                    "interpolation": "LINEAR",
                    "output": 47
                },
                {
                    "input": 0,
                    "interpolation": "LINEAR",
                    "output": 48
                },
                {
                    "input": 0,
                    "interpolation": "LINEAR",
                    "output": 49
                },
                {
                    "input": 0,
                    "interpolation": "LINEAR",
                    "output": 50
                },
                {
                    "input": 0,
                    "interpolation": "LINEAR",
                    "output": 51
                },
                {
                    "input": 0,
                    "interpolation": "LINEAR",
                    "output": 52
                },
                {
                    "input": 0,
                    "interpolation": "LINEAR",
                    "output": 53
                },
                {
                    "input": 0,
                    "interpolation": "LINEAR",
                    "output": 54
                },
                {
                    "input": 0,
                    "interpolation": "LINEAR",
                    "output": 55
                },
                {
                    "input": 0,
                    "interpolation": "LINEAR",
                    "output": 56
                },
                {
                    "input": 0,
                    "interpolation": "LINEAR",
                    "output": 57
                },
                {
                    "input": 0,
                    "interpolation": "LINEAR",
                    "output": 58
                },
                {
                    "input": 0,
                    "interpolation": "LINEAR",
                    "output": 59
                },
                {
                    "input": 0,
                    "interpolation": "LINEAR",
                    "output": 60
                },
                {
                    "input": 0,
                    "interpolation": "LINEAR",
                    "output": 61
                },
                {
                    "input": 0,
                    "interpolation": "LINEAR",
                    "output": 62
                }
            ]
        }
    ],
    "nodes": [
        {
            "name": "RootNode",
            "translation": [
                0.0,
                0.0,
                0.0
            ],
            "rotation": [
                0.0,
                0.0,
                0.0,
                1.0
            ],
            "scale": [
                1.0,
                1.0,
                1.0
            ],
            "children": [
                1,
                4,
                54
            ]
        },
        {
            "name": "AmongUS",
            "translation": [
                0.0,
                0.0,
                0.0
            ],
            "rotation": [
                0.0,
                0.0,
                0.0,
                1.0
            ],
            "scale": [
                1.0,
                1.0,
                1.0
            ],
            "children": [
                2,
                3
            ],
            "mesh": 0,
            "skin": 0
        },
        {
            "name": "Luoi",
            "translation": [
                0.0,
                0.0,
                0.0
            ],
            "rotation": [
                0.0,
                0.0,
                0.0,
                1.0
            ],
            "scale": [
                1.0,
                1.0,
                1.0
            ],
            "mesh": 1,
            "skin": 1
        },
        {
            "name": "Hand3",
            "translation": [
                0.0,
                0.0,
                0.0
            ],
            "rotation": [
                0.0,
                0.0,
                0.0,
                1.0
            ],
            "scale": [
                1.0,
                1.0,
                1.0
            ],
            "mesh": 2,
            "skin": 2
        },
        {
            "name": "All_ctrl",
            "translation": [
                0.0,
                0.0,
                0.0
            ],
            "rotation": [
                0.0,
                0.0,
                0.0,
                1.0
            ],
            "scale": [
                1.0,
                1.0,
                1.0
            ],
            "children": [
                5
            ]
        },
        {
            "name": "all_joint",
            "translation": [
                0.0,
                0.0,
                0.0
            ],
            "rotation": [
                0.0,
                0.0,
                0.0,
                1.0
            ],
            "scale": [
                1.0,
                1.0,
                1.0
            ],
            "children": [
                6
            ]
        },
        {
            "name": "hip",
            "translation": [
                -2.06726599571994e-05,
                0.010750649496913,
                0.000261787907220423
            ],
            "rotation": [
                0.0,
                0.0,
                0.0,
                1.0
            ],
            "scale": [
                1.0,
                1.0,
                1.0
            ],
            "children": [
                7,
                46,
                50
            ]
        },
        {
            "name": "spine_01",
            "translation": [
                0.0,
                0.0,
                0.0
            ],
            "rotation": [
                0.0,
                0.0,
                0.0,
                1.0
            ],
            "scale": [
                1.0,
                1.0,
                1.0
            ],
            "children": [
                8,
                35
            ]
        },
        {
            "name": "spine_02",
            "translation": [
                1.70663697645068e-05,
                0.00577584328129888,
                -0.000204509604373015
            ],
            "rotation": [
                0.0,
                0.0,
                0.0,
                1.0
            ],
            "scale": [
                1.0,
                1.0,
                1.0
            ],
            "children": [
                9,
                10,
                11,
                12,
                21
            ]
        },
        {
            "name": "head",
            "translation": [
                0.0,
                0.00608219299465418,
                0.0
            ],
            "rotation": [
                0.0,
                0.0,
                0.0,
                1.0
            ],
            "scale": [
                1.0,
                1.0,
                1.0
            ]
        },
        {
            "name": "back",
            "translation": [
                1.0842021482517e-21,
                -0.00257369480095804,
                -0.00784720573574305
            ],
            "rotation": [
                0.0,
                0.0,
                0.0,
                1.0
            ],
            "scale": [
                1.0,
                1.0,
                1.0
            ]
        },
        {
            "name": "jaw_up",
            "translation": [
                0.0,
                -0.00179415487218648,
                0.00304747698828578
            ],
            "rotation": [
                0.0,
                0.0,
                0.0,
                1.0
            ],
            "scale": [
                1.0,
                1.0,
                1.0
            ]
        },
        {
            "name": "Hand_L_01",
            "translation": [
                0.00711440900340676,
                -0.00237463088706136,
                -0.00742757599800825
            ],
            "rotation": [
                0.128895059227943,
                0.795257270336151,
                0.499279469251633,
                -0.31886038184166
            ],
            "scale": [
                1.0,
                1.0,
                1.0
            ],
            "children": [
                13,
                15,
                17,
                19
            ]
        },
        {
            "name": "Thumb_L_01",
            "translation": [
                0.00711080292239785,
                0.014151862822473,
                -0.00737029779702425
            ],
            "rotation": [
                0.0469514727592468,
                0.810848414897919,
                0.56792950630188,
                -0.133328661322594
            ],
            "scale": [
                1.0,
                1.0,
                1.0
            ],
            "children": [
                14
            ]
        },
        {
            "name": "Thumb_L_02",
            "translation": [
                0.00711080292239785,
                0.014151862822473,
                -0.00737029779702425
            ],
            "rotation": [
                -0.0829269364476204,
                0.779969811439514,
                0.531055927276611,
                -0.320546090602875
            ],
            "scale": [
                1.0,
                1.0,
                1.0
            ]
        },
        {
            "name": "idex_L_01",
            "translation": [
                0.00711080292239785,
                0.014151862822473,
                -0.00737029779702425
            ],
            "rotation": [
                -0.534991919994354,
                0.664393126964569,
                0.452454417943954,
                0.260096848011017
            ],
            "scale": [
                1.0,
                1.0,
                1.0
            ],
            "children": [
                16
            ]
        },
        {
            "name": "idex_L_02",
            "translation": [
                0.00711080292239785,
                0.014151862822473,
                -0.00737029779702425
            ],
            "rotation": [
                0.832181870937347,
                -0.186922386288643,
                -0.192422330379486,
                -0.485290586948395
            ],
            "scale": [
                1.0,
                1.0,
                1.0
            ]
        },
        {
            "name": "Ring_L_01",
            "translation": [
                0.00711080292239785,
                0.014151862822473,
                -0.00737029779702425
            ],
            "rotation": [
                -0.518667221069336,
                0.640804827213287,
                0.530152261257172,
                0.198222279548645
            ],
            "scale": [
                1.0,
                1.0,
                1.0
            ],
            "children": [
                18
            ]
        },
        {
            "name": "Ring_L_02",
            "translation": [
                0.00711080292239785,
                0.014151862822473,
                -0.00737029779702425
            ],
            "rotation": [
                0.793212115764618,
                -0.224563896656036,
                -0.318938195705414,
                -0.467615276575089
            ],
            "scale": [
                1.0,
                1.0,
                1.0
            ]
        },
        {
            "name": "Little_L_01",
            "translation": [
                0.00711080292239785,
                0.014151862822473,
                -0.00737029779702425
            ],
            "rotation": [
                0.596071183681488,
                -0.524321973323822,
                -0.561828076839447,
                -0.232668951153755
            ],
            "scale": [
                1.0,
                1.0,
                1.0
            ],
            "children": [
                20
            ]
        },
        {
            "name": "Little_L_02",
            "translation": [
                0.00711080292239785,
                0.014151862822473,
                -0.00737029779702425
            ],
            "rotation": [
                0.781086981296539,
                -0.141928032040596,
                -0.361397236585617,
                -0.489031285047531
            ],
            "scale": [
                1.0,
                1.0,
                1.0
            ]
        },
        {
            "name": "Hand_R_01",
            "translation": [
                0.00189426087308675,
                -0.00193236500490457,
                -0.00335760693997145
            ],
            "rotation": [
                0.89329469203949,
                -0.235673397779465,
                -0.189711108803749,
                -0.332403928041458
            ],
            "scale": [
                1.0,
                1.0,
                1.0
            ],
            "children": [
                22,
                24,
                26,
                28,
                30,
                31,
                32,
                33,
                34
            ]
        },
        {
            "name": "Thumb_R_01",
            "translation": [
                0.00189065467566252,
                0.0145941274240613,
                -0.00330032873898745
            ],
            "rotation": [
                -0.764634072780609,
                -0.273430079221725,
                0.246514156460762,
                0.528962731361389
            ],
            "scale": [
                1.0,
                1.0,
                1.0
            ],
            "children": [
                23
            ]
        },
        {
            "name": "Thumb_R_02",
            "translation": [
                0.00189065467566252,
                0.0145941274240613,
                -0.00330032873898745
            ],
            "rotation": [
                -0.802046358585358,
                -0.0961643382906914,
                0.000913928146474063,
                0.589468598365784
            ],
            "scale": [
                1.0,
                1.0,
                1.0
            ]
        },
        {
            "name": "idex_R_01",
            "translation": [
                0.00189065467566252,
                0.0145941274240613,
                -0.00330032873898745
            ],
            "rotation": [
                0.775948703289032,
                0.412868827581406,
                -0.0135399661958218,
                -0.476717501878738
            ],
            "scale": [
                1.0,
                1.0,
                1.0
            ],
            "children": [
                25
            ]
        },
        {
            "name": "idex_R_02",
            "translation": [
                0.00189065467566252,
                0.0145941274240613,
                -0.00330032873898745
            ],
            "rotation": [
                0.579486131668091,
                0.660971522331238,
                0.156248077750206,
                -0.450443089008331
            ],
            "scale": [
                1.0,
                1.0,
                1.0
            ]
        },
        {
            "name": "Ring_R_01",
            "translation": [
                0.00189065467566252,
                0.0145941274240613,
                -0.00330032873898745
            ],
            "rotation": [
                0.809296429157257,
                0.414867669343948,
                0.0466144308447838,
                -0.413220465183258
            ],
            "scale": [
                1.0,
                1.0,
                1.0
            ],
            "children": [
                27
            ]
        },
        {
            "name": "Ring_R_02",
            "translation": [
                0.00189065467566252,
                0.0145941274240613,
                -0.00330032873898745
            ],
            "rotation": [
                0.574605584144592,
                0.704927921295166,
                0.208626925945282,
                -0.359694123268127
            ],
            "scale": [
                1.0,
                1.0,
                1.0
            ]
        },
        {
            "name": "Little_R_01",
            "translation": [
                0.00189065467566252,
                0.0145941274240613,
                -0.00330032873898745
            ],
            "rotation": [
                0.825489401817322,
                0.431214839220047,
                0.103355497121811,
                -0.349197149276733
            ],
            "scale": [
                1.0,
                1.0,
                1.0
            ],
            "children": [
                29
            ]
        },
        {
            "name": "Little_R_02",
            "translation": [
                0.00189065467566252,
                0.0145941274240613,
                -0.00330032873898745
            ],
            "rotation": [
                0.552078366279602,
                0.750051081180573,
                0.24626612663269,
                -0.268301844596863
            ],
            "scale": [
                1.0,
                1.0,
                1.0
            ]
        },
        {
            "name": "weapon_gun_joint",
            "translation": [
                0.00189065467566252,
                0.0145941274240613,
                -0.00330032873898745
            ],
            "rotation": [
                0.799660205841064,
                0.0116748353466392,
                -0.30231761932373,
                0.518662989139557
            ],
            "scale": [
                1.0,
                1.0,
                1.0
            ]
        },
        {
            "name": "weapon_katana_joint",
            "translation": [
                0.00189065467566252,
                0.0145941274240613,
                -0.00330032873898745
            ],
            "rotation": [
                0.332403928041458,
                0.189711108803749,
                -0.235673397779465,
                0.89329469203949
            ],
            "scale": [
                1.0,
                1.0,
                1.0
            ]
        },
        {
            "name": "weapon_knife_joint",
            "translation": [
                0.00189065467566252,
                0.0145941274240613,
                -0.00330032873898745
            ],
            "rotation": [
                0.906899034976959,
                -0.227215006947517,
                -0.217241764068604,
                -0.280559301376343
            ],
            "scale": [
                1.0,
                1.0,
                1.0
            ]
        },
        {
            "name": "weapon_bazooka_joint",
            "translation": [
                0.00189065467566252,
                0.0145941274240613,
                -0.00330032873898745
            ],
            "rotation": [
                0.332403928041458,
                0.189711108803749,
                -0.235673397779465,
                0.89329469203949
            ],
            "scale": [
                1.0,
                1.0,
                1.0
            ]
        },
        {
            "name": "weapon_bua_joint",
            "translation": [
                0.00189065467566252,
                0.0145941274240613,
                -0.00330032873898745
            ],
            "rotation": [
                0.303779542446136,
                0.0810092911124229,
                -0.270107924938202,
                0.910053372383118
            ],
            "scale": [
                1.0,
                1.0,
                1.0
            ]
        },
        {
            "name": "jaw_down",
            "translation": [
                0.0,
                0.00247043999843299,
                -0.00123132392764091
            ],
            "rotation": [
                0.0,
                0.0,
                0.0,
                1.0
            ],
            "scale": [
                1.0,
                1.0,
                1.0
            ],
            "children": [
                36,
                37
            ]
        },
        {
            "name": "jaw_down1",
            "translation": [
                0.0,
                -0.00205848040059209,
                0.00652236258611083
            ],
            "rotation": [
                0.0,
                0.0,
                0.0,
                1.0
            ],
            "scale": [
                1.0,
                1.0,
                1.0
            ]
        },
        {
            "name": "Luoi1",
            "translation": [
                2.23042898142012e-05,
                -0.000203395495191216,
                0.000603716180194169
            ],
            "rotation": [
                -0.0,
                -0.70710676908493,
                0.0,
                0.70710676908493
            ],
            "scale": [
                1.0,
                1.0,
                1.0
            ],
            "children": [
                38
            ]
        },
        {
            "name": "Luoi2",
            "translation": [
                0.000704610487446189,
                0.0,
                1.56938263433301e-19
            ],
            "rotation": [
                0.0,
                0.0,
                0.0,
                1.0
            ],
            "scale": [
                1.0,
                1.0,
                1.0
            ],
            "children": [
                39
            ]
        },
        {
            "name": "Luoi3",
            "translation": [
                0.000730104802642018,
                0.0,
                1.6127506798734e-19
            ],
            "rotation": [
                0.0,
                0.0,
                0.0,
                1.0
            ],
            "scale": [
                1.0,
                1.0,
                1.0
            ],
            "children": [
                40
            ]
        },
        {
            "name": "Luoi4",
            "translation": [
                0.000752364401705563,
                0.0,
                1.67238187173841e-19
            ],
            "rotation": [
                0.0,
                0.0,
                0.0,
                1.0
            ],
            "scale": [
                1.0,
                1.0,
                1.0
            ],
            "children": [
                41
            ]
        },
        {
            "name": "Luoi5",
            "translation": [
                0.000736771035008132,
                0.0,
                1.62901369695105e-19
            ],
            "rotation": [
                0.0,
                0.0,
                0.0,
                1.0
            ],
            "scale": [
                1.0,
                1.0,
                1.0
            ],
            "children": [
                42
            ]
        },
        {
            "name": "Luoi6",
            "translation": [
                0.000753338332287967,
                2.22044599961948e-18,
                1.67780287743095e-19
            ],
            "rotation": [
                0.0,
                -0.0,
                -0.0160193089395761,
                0.999871671199799
            ],
            "scale": [
                1.0,
                1.0,
                1.0
            ],
            "children": [
                43
            ]
        },
        {
            "name": "Luoi7",
            "translation": [
                0.000747368496377021,
                -8.88178399847791e-18,
                1.653408287191e-19
            ],
            "rotation": [
                -3.85137935954083e-34,
                6.08380387256922e-36,
                -0.0157944578677416,
                0.999875247478485
            ],
            "scale": [
                1.0,
                1.0,
                1.0
            ],
            "children": [
                44
            ]
        },
        {
            "name": "Luoi8",
            "translation": [
                0.000753030471969396,
                2.22044599961948e-18,
                1.66967130426865e-19
            ],
            "rotation": [
                8.73465403715901e-34,
                6.149211517875e-33,
                -0.0167453978210688,
                0.999859809875488
            ],
            "scale": [
                1.0,
                1.0,
                1.0
            ],
            "children": [
                45
            ]
        },
        {
            "name": "Luoi9",
            "translation": [
                0.000740690680686384,
                4.44089199923895e-18,
                1.63985570833614e-19
            ],
            "rotation": [
                -7.70371977754894e-34,
                -0.0,
                0.0,
                1.0
            ],
            "scale": [
                1.0,
                1.0,
                1.0
            ]
        },
        {
            "name": "leg_L",
            "translation": [
                0.00465013552457094,
                -0.00379317277111113,
                0.000159112401888706
            ],
            "rotation": [
                -0.0723621472716331,
                -0.0487260296940804,
                -0.707963705062866,
                0.700840175151825
            ],
            "scale": [
                1.0,
                1.0,
                1.0
            ],
            "children": [
                47
            ]
        },
        {
            "name": "knee_L",
            "translation": [
                0.00354297086596489,
                1.11022299980974e-18,
                0.0
            ],
            "rotation": [
                -0.000110674533061683,
                0.187327742576599,
                0.00652872817590833,
                0.982275784015656
            ],
            "scale": [
                1.0,
                1.0,
                1.0
            ],
            "children": [
                48
            ]
        },
        {
            "name": "feet_L",
            "translation": [
                0.0031205506529659,
                1.66533449971461e-18,
                -9.02056174420715e-19
            ],
            "rotation": [
                0.0125349489971995,
                -0.775841057300568,
                -0.0102942734956741,
                0.630719900131226
            ],
            "scale": [
                1.0,
                1.0,
                1.0
            ],
            "children": [
                49
            ]
        },
        {
            "name": "feet_L_end",
            "translation": [
                0.00199049687944353,
                0.0,
                2.77555749952435e-19
            ],
            "rotation": [
                -9.39371405928501e-27,
                -1.29246970711411e-26,
                -0.0,
                1.0
            ],
            "scale": [
                1.0,
                1.0,
                1.0
            ]
        },
        {
            "name": "leg_R",
            "translation": [
                -0.00465013738721609,
                -0.00379316788166761,
                0.000159112096298486
            ],
            "rotation": [
                0.700840175151825,
                0.707963645458221,
                -0.0487258844077587,
                0.0723622888326645
            ],
            "scale": [
                1.0,
                1.0,
                1.0
            ],
            "children": [
                51
            ]
        },
        {
            "name": "knee_R",
            "translation": [
                -0.00354298041202128,
                7.43038630623971e-10,
                -1.26160104585438e-09
            ],
            "rotation": [
                -0.000110674533061683,
                0.187327742576599,
                0.00652872817590833,
                0.982275784015656
            ],
            "scale": [
                1.0,
                1.0,
                1.0
            ],
            "children": [
                52
            ]
        },
        {
            "name": "feet_R",
            "translation": [
                -0.00312054716050625,
                -2.77555739612677e-18,
                3.18168646984418e-09
            ],
            "rotation": [
                0.0125351045280695,
                -0.775841057300568,
                -0.0102943992242217,
                0.630719900131226
            ],
            "scale": [
                1.0,
                1.0,
                1.0
            ],
            "children": [
                53
            ]
        },
        {
            "name": "feet_R_end",
            "translation": [
                -0.00199049199000001,
                -1.83464350584142e-15,
                2.98372422151579e-18
            ],
            "rotation": [
                -1.17029225515328e-26,
                3.23117426778526e-27,
                0.0,
                1.0
            ],
            "scale": [
                1.0,
                1.0,
                1.0
            ]
        },
        {
            "name": "weapon_katana",
            "translation": [
                0.0,
                0.0,
                0.0
            ],
            "rotation": [
                0.0,
                0.0,
                0.0,
                1.0
            ],
            "scale": [
                1.0,
                1.0,
                1.0
            ],
            "mesh": 3,
            "skin": 3
        }
    ]
}