{
  "__type__": "cc.SpriteFrame",
  "content": {
    "name": "HoldToRun_RU",
    "texture": "9aaabcaa-e6ba-4909-b0fa-dd3822b90b7a",
    "atlas": "",
    "rect": [
      0,
      0,
      521,
      92
    ],
    "offset": [
      0,
      0
    ],
    "originalSize": [
      521,
      92
    ],
    "capInsets": [
      0,
      0,
      0,
      0
    ]
  }
}