{
  "__type__": "cc.SpriteFrame",
  "content": {
    "name": "BtnPlayFree",
    "texture": "a853d360-56d2-4fe1-a0f6-29c6ceeebaf5",
    "atlas": "",
    "rect": [
      0,
      0,
      256,
      80
    ],
    "offset": [
      0,
      0
    ],
    "originalSize": [
      256,
      80
    ],
    "capInsets": [
      0,
      0,
      0,
      0
    ]
  }
}