{
  "__type__": "cc.SpriteFrame",
  "content": {
    "name": "INSTALL_NOW_EN",
    "texture": "43ad5b8d-cce5-4116-86ee-dc83f8ee04b1",
    "atlas": "",
    "rect": [
      0,
      0,
      260,
      75
    ],
    "offset": [
      0,
      0
    ],
    "originalSize": [
      260,
      75
    ],
    "capInsets": [
      0,
      0,
      0,
      0
    ]
  }
}