{
  "__type__": "cc.Material",
  "_name": "New Material",
  "_objFlags": 0,
  "_native": "",
  "_effectAsset": {
    "__uuid__": "abc2cb62-7852-4525-a90d-d474487b88f2"
  },
  "_techniqueIndex": 0,
  "_techniqueData": {
    "0": {
      "defines": {
        "USE_DIFFUSE_TEXTURE": true,
        "USE_SPECULAR": false,
        "USE_SPECULAR_TEXTURE": false,
        "USE_EMISSIVE": true,
        "USE_EMISSIVE_TEXTURE": true
      },
      "props": {
        "diffuseTexture": {
          "__uuid__": "cc9b3c1c-22c5-4340-920d-7f5f7e0a5963"
        },
        "emissiveTexture": {
          "__uuid__": "cc9b3c1c-22c5-4340-920d-7f5f7e0a5963"
        },
        "emissiveColor": {
          "__type__": "cc.Color",
          "r": 218,
          "g": 218,
          "b": 218,
          "a": 255
        },
        "diffuseColor": {
          "__type__": "cc.Color",
          "r": 172,
          "g": 168,
          "b": 168,
          "a": 255
        },
        "specularColor": {
          "__type__": "cc.Color",
          "r": 172,
          "g": 168,
          "b": 168,
          "a": 255
        }
      }
    }
  }
}