{
  "__type__": "cc.Material",
  "_name": "Decor",
  "_objFlags": 0,
  "_native": "",
  "_effectAsset": {
    "__uuid__": "abc2cb62-7852-4525-a90d-d474487b88f2"
  },
  "_techniqueIndex": 0,
  "_techniqueData": {
    "0": {
      "defines": {
        "USE_DIFFUSE_TEXTURE": true,
        "USE_EMISSIVE": true,
        "USE_EMISSIVE_TEXTURE": true
      },
      "props": {
        "emissiveColor": {
          "__type__": "cc.Color",
          "r": 189,
          "g": 189,
          "b": 189,
          "a": 255
        },
        "diffuseColor": {
          "__type__": "cc.Color",
          "r": 20,
          "g": 255,
          "b": 0,
          "a": 255
        },
        "emissiveTexture": {
          "__uuid__": "a12c902b-7a24-4fa1-8945-76c820b68788"
        },
        "diffuseTexture": {
          "__uuid__": "a12c902b-7a24-4fa1-8945-76c820b68788"
        }
      }
    }
  }
}