{
  "__type__": "cc.SpriteFrame",
  "content": {
    "name": "default_hammer",
    "texture": "9e05ac60-5ed5-4a04-bc05-ec2bf382c451",
    "atlas": "",
    "rect": [
      2,
      2,
      269,
      268
    ],
    "offset": [
      0,
      0
    ],
    "originalSize": [
      273,
      272
    ],
    "capInsets": [
      0,
      0,
      0,
      0
    ]
  }
}