[
  {
    "__type__": "cc.Mesh",
    "_name": "",
    "_objFlags": 0,
    "_native": ".bin",
    "_vertexBundles": [
      {
        "__id__": 1
      }
    ],
    "_primitives": [
      {
        "__id__": 6
      }
    ],
    "_minPos": {
      "__type__": "cc.Vec3",
      "x": -0.302774697542191,
      "y": -0.00300029758363962,
      "z": -0.230359718203545
    },
    "_maxPos": {
      "__type__": "cc.Vec3",
      "x": 0.302905172109604,
      "y": 0.0250505432486534,
      "z": 0.230923756957054
    }
  },
  {
    "__type__": "cc.mesh.VertexBundle",
    "data": {
      "__id__": 2
    },
    "formats": [
      {
        "__id__": 3
      },
      {
        "__id__": 4
      },
      {
        "__id__": 5
      }
    ],
    "verticesCount": 272
  },
  {
    "__type__": "cc.BufferRange",
    "offset": 0,
    "length": 8704
  },
  {
    "__type__": "cc.mesh.VertexFormat",
    "name": "a_normal",
    "type": 5126,
    "num": 3,
    "normalize": false
  },
  {
    "__type__": "cc.mesh.VertexFormat",
    "name": "a_position",
    "type": 5126,
    "num": 3,
    "normalize": false
  },
  {
    "__type__": "cc.mesh.VertexFormat",
    "name": "a_uv0",
    "type": 5126,
    "num": 2,
    "normalize": false
  },
  {
    "__type__": "cc.mesh.Primitive",
    "vertexBundleIndices": [
      0
    ],
    "data": {
      "__id__": 7
    },
    "indexUnit": 5123,
    "topology": 4
  },
  {
    "__type__": "cc.BufferRange",
    "offset": 8704,
    "length": 1200
  }
]