{
  "__type__": "cc.SpriteFrame",
  "content": {
    "name": "Level 1_EN",
    "texture": "327c910b-e9e9-4bb0-a41e-47d90600d09d",
    "atlas": "",
    "rect": [
      0,
      0,
      117,
      31
    ],
    "offset": [
      0,
      0
    ],
    "originalSize": [
      117,
      31
    ],
    "capInsets": [
      0,
      0,
      0,
      0
    ]
  }
}