[
  {
    "__type__": "cc.Mesh",
    "_name": "",
    "_objFlags": 0,
    "_native": ".bin",
    "_vertexBundles": [
      {
        "__id__": 1
      }
    ],
    "_primitives": [
      {
        "__id__": 9
      }
    ],
    "_minPos": {
      "__type__": "cc.Vec3",
      "x": -0.00255490466952324,
      "y": -0.00039931177161634,
      "z": -0.0000318379679811187
    },
    "_maxPos": {
      "__type__": "cc.Vec3",
      "x": 0.00255490466952324,
      "y": 0.000593252188991755,
      "z": 0.00716942409053445
    }
  },
  {
    "__type__": "cc.mesh.VertexBundle",
    "data": {
      "__id__": 2
    },
    "formats": [
      {
        "__id__": 3
      },
      {
        "__id__": 4
      },
      {
        "__id__": 5
      },
      {
        "__id__": 6
      },
      {
        "__id__": 7
      },
      {
        "__id__": 8
      }
    ],
    "verticesCount": 182
  },
  {
    "__type__": "cc.BufferRange",
    "offset": 0,
    "length": 11648
  },
  {
    "__type__": "cc.mesh.VertexFormat",
    "name": "a_joints",
    "type": 5123,
    "num": 4,
    "normalize": false
  },
  {
    "__type__": "cc.mesh.VertexFormat",
    "name": "a_normal",
    "type": 5126,
    "num": 3,
    "normalize": false
  },
  {
    "__type__": "cc.mesh.VertexFormat",
    "name": "a_position",
    "type": 5126,
    "num": 3,
    "normalize": false
  },
  {
    "__type__": "cc.mesh.VertexFormat",
    "name": "a_uv0",
    "type": 5126,
    "num": 2,
    "normalize": false
  },
  {
    "__type__": "cc.mesh.VertexFormat",
    "name": "a_uv1",
    "type": 5126,
    "num": 2,
    "normalize": false
  },
  {
    "__type__": "cc.mesh.VertexFormat",
    "name": "a_weights",
    "type": 5126,
    "num": 4,
    "normalize": false
  },
  {
    "__type__": "cc.mesh.Primitive",
    "vertexBundleIndices": [
      0
    ],
    "data": {
      "__id__": 10
    },
    "indexUnit": 5123,
    "topology": 4
  },
  {
    "__type__": "cc.BufferRange",
    "offset": 11648,
    "length": 1320
  }
]