{
  "__type__": "cc.SpriteFrame",
  "content": {
    "name": "ChooseYourNextRole_EN",
    "texture": "eba625f3-abea-4687-a0ed-9dd2ff125e89",
    "atlas": "",
    "rect": [
      0,
      0,
      366,
      92
    ],
    "offset": [
      0,
      0
    ],
    "originalSize": [
      366,
      92
    ],
    "capInsets": [
      0,
      0,
      0,
      0
    ]
  }
}