[
  {
    "__type__": "cc.Mesh",
    "_name": "",
    "_objFlags": 0,
    "_native": ".bin",
    "_vertexBundles": [
      {
        "__id__": 1
      },
      {
        "__id__": 6
      }
    ],
    "_primitives": [
      {
        "__id__": 11
      },
      {
        "__id__": 13
      }
    ],
    "_minPos": {
      "__type__": "cc.Vec3",
      "x": -0.085331030189991,
      "y": 0.0199691541492939,
      "z": -0.122772432863712
    },
    "_maxPos": {
      "__type__": "cc.Vec3",
      "x": 0.085331030189991,
      "y": 0.0750699117779732,
      "z": 0.0897330567240715
    }
  },
  {
    "__type__": "cc.mesh.VertexBundle",
    "data": {
      "__id__": 2
    },
    "formats": [
      {
        "__id__": 3
      },
      {
        "__id__": 4
      },
      {
        "__id__": 5
      }
    ],
    "verticesCount": 4652
  },
  {
    "__type__": "cc.BufferRange",
    "offset": 0,
    "length": 148864
  },
  {
    "__type__": "cc.mesh.VertexFormat",
    "name": "a_normal",
    "type": 5126,
    "num": 3,
    "normalize": false
  },
  {
    "__type__": "cc.mesh.VertexFormat",
    "name": "a_position",
    "type": 5126,
    "num": 3,
    "normalize": false
  },
  {
    "__type__": "cc.mesh.VertexFormat",
    "name": "a_uv0",
    "type": 5126,
    "num": 2,
    "normalize": false
  },
  {
    "__type__": "cc.mesh.VertexBundle",
    "data": {
      "__id__": 7
    },
    "formats": [
      {
        "__id__": 8
      },
      {
        "__id__": 9
      },
      {
        "__id__": 10
      }
    ],
    "verticesCount": 97
  },
  {
    "__type__": "cc.BufferRange",
    "offset": 158770,
    "length": 3104
  },
  {
    "__type__": "cc.mesh.VertexFormat",
    "name": "a_normal",
    "type": 5126,
    "num": 3,
    "normalize": false
  },
  {
    "__type__": "cc.mesh.VertexFormat",
    "name": "a_position",
    "type": 5126,
    "num": 3,
    "normalize": false
  },
  {
    "__type__": "cc.mesh.VertexFormat",
    "name": "a_uv0",
    "type": 5126,
    "num": 2,
    "normalize": false
  },
  {
    "__type__": "cc.mesh.Primitive",
    "vertexBundleIndices": [
      0
    ],
    "data": {
      "__id__": 12
    },
    "indexUnit": 5123,
    "topology": 4
  },
  {
    "__type__": "cc.BufferRange",
    "offset": 148864,
    "length": 9906
  },
  {
    "__type__": "cc.mesh.Primitive",
    "vertexBundleIndices": [
      1
    ],
    "data": {
      "__id__": 14
    },
    "indexUnit": 5123,
    "topology": 4
  },
  {
    "__type__": "cc.BufferRange",
    "offset": 161874,
    "length": 318
  }
]