{
  "__type__": "cc.SpriteFrame",
  "content": {
    "name": "NEXT LEVEL_EN",
    "texture": "d149de4d-8085-49f5-a6e2-e8967c797548",
    "atlas": "",
    "rect": [
      0,
      0,
      294,
      34
    ],
    "offset": [
      0,
      0
    ],
    "originalSize": [
      294,
      34
    ],
    "capInsets": [
      0,
      0,
      0,
      0
    ]
  }
}