{
  "__type__": "cc.Skeleton",
  "_name": "",
  "_objFlags": 0,
  "_native": "",
  "_model": {
    "__uuid__": "444dd997-d612-461b-b4d8-70b29797e42e"
  },
  "_jointIndices": [
    13,
    14,
    15,
    16,
    17,
    18,
    19,
    20,
    21
  ],
  "_skinIndex": 1
}