{
  "__type__": "cc.SpriteFrame",
  "content": {
    "name": "WheeWeapon2",
    "texture": "337e3ba3-82ef-4938-958a-d6ac41aa1434",
    "atlas": "",
    "rect": [
      12,
      12,
      283,
      283
    ],
    "offset": [
      -0.5,
      0.5
    ],
    "originalSize": [
      308,
      308
    ],
    "capInsets": [
      0,
      0,
      0,
      0
    ]
  }
}