{
  "__type__": "cc.Material",
  "_name": "BrickRed - 001",
  "_objFlags": 0,
  "_native": "",
  "_effectAsset": {
    "__uuid__": "abc2cb62-7852-4525-a90d-d474487b88f2"
  },
  "_techniqueIndex": 0,
  "_techniqueData": {
    "0": {
      "defines": {
        "USE_DIFFUSE_TEXTURE": true,
        "USE_EMISSIVE": true,
        "USE_EMISSIVE_TEXTURE": true
      },
      "props": {
        "emissiveColor": {
          "__type__": "cc.Color",
          "r": 133,
          "g": 130,
          "b": 130,
          "a": 255
        },
        "diffuseColor": {
          "__type__": "cc.Color",
          "r": 134,
          "g": 130,
          "b": 130,
          "a": 255
        },
        "diffuseTexture": {
          "__uuid__": "e59f7265-00c1-47fe-aec7-310402cf84df"
        },
        "emissiveTexture": {
          "__uuid__": "e59f7265-00c1-47fe-aec7-310402cf84df"
        }
      }
    }
  }
}