[
  {
    "__type__": "cc.Mesh",
    "_name": "",
    "_objFlags": 0,
    "_native": ".bin",
    "_vertexBundles": [
      {
        "__id__": 1
      }
    ],
    "_primitives": [
      {
        "__id__": 6
      }
    ],
    "_minPos": {
      "__type__": "cc.Vec3",
      "x": -0.416992396116257,
      "y": -1.5,
      "z": -0.292483121156693
    },
    "_maxPos": {
      "__type__": "cc.Vec3",
      "x": 0.416992396116257,
      "y": 0.0837956964969635,
      "z": 0.295631110668182
    }
  },
  {
    "__type__": "cc.mesh.VertexBundle",
    "data": {
      "__id__": 2
    },
    "formats": [
      {
        "__id__": 3
      },
      {
        "__id__": 4
      },
      {
        "__id__": 5
      }
    ],
    "verticesCount": 1165
  },
  {
    "__type__": "cc.BufferRange",
    "offset": 0,
    "length": 37280
  },
  {
    "__type__": "cc.mesh.VertexFormat",
    "name": "a_normal",
    "type": 5126,
    "num": 3,
    "normalize": false
  },
  {
    "__type__": "cc.mesh.VertexFormat",
    "name": "a_position",
    "type": 5126,
    "num": 3,
    "normalize": false
  },
  {
    "__type__": "cc.mesh.VertexFormat",
    "name": "a_uv0",
    "type": 5126,
    "num": 2,
    "normalize": false
  },
  {
    "__type__": "cc.mesh.Primitive",
    "vertexBundleIndices": [
      0
    ],
    "data": {
      "__id__": 7
    },
    "indexUnit": 5123,
    "topology": 4
  },
  {
    "__type__": "cc.BufferRange",
    "offset": 37280,
    "length": 8340
  }
]