{
  "__type__": "cc.SpriteFrame",
  "content": {
    "name": "Choose the skin  you like to continue playing_En",
    "texture": "1ac64fbb-d777-4fd8-a6a9-b4a02537f1f2",
    "atlas": "",
    "rect": [
      0,
      0,
      589,
      90
    ],
    "offset": [
      0,
      0
    ],
    "originalSize": [
      589,
      90
    ],
    "capInsets": [
      0,
      0,
      0,
      0
    ]
  }
}