{
  "__type__": "cc.SpriteFrame",
  "content": {
    "name": "color_brown",
    "texture": "9d0ed898-d212-4d4a-b118-b7ed176562dc",
    "atlas": "",
    "rect": [
      0,
      0,
      1024,
      1024
    ],
    "offset": [
      0,
      0
    ],
    "originalSize": [
      1024,
      1024
    ],
    "capInsets": [
      0,
      0,
      0,
      0
    ]
  }
}