{
  "__type__": "cc.Skeleton",
  "_name": "",
  "_objFlags": 0,
  "_native": "",
  "_model": {
    "__uuid__": "d8ae51a9-9737-4a0b-bd57-e3f934522010"
  },
  "_jointIndices": [
    37,
    44,
    45,
    40,
    41,
    42,
    43,
    38,
    39
  ],
  "_skinIndex": 1
}