{
  "__type__": "cc.Model",
  "_name": "Bridge_Start_End",
  "_objFlags": 0,
  "_native": "",
  "_nodes": [
    {
      "name": "RootNode",
      "scale": [
        1,
        1,
        1
      ],
      "children": [
        1
      ],
      "position": [
        0,
        0,
        0
      ],
      "quat": [
        0,
        0,
        0,
        1
      ],
      "path": ""
    },
    {
      "name": "Bride_Start_End",
      "scale": [
        0.200512319803238,
        0.200512319803238,
        1.05788445472717
      ],
      "mesh": 0,
      "parent": null,
      "position": [
        0,
        0,
        0
      ],
      "quat": [
        -5.33850759154575e-8,
        0.70710676908493,
        0.70710676908493,
        5.33850759154575e-8
      ],
      "path": "Bride_Start_End"
    }
  ],
  "_precomputeJointMatrix": false
}