{
    "asset": {
        "generator": "FBX2glTF v0.9.7",
        "version": "2.0"
    },
    "scene": 0,
    "buffers": [
        {
            "byteLength": 464408,
            "uri": "buffer.bin"
        }
    ],
    "bufferViews": [
        {
            "buffer": 0,
            "byteLength": 7428,
            "byteOffset": 0,
            "target": 34963
        },
        {
            "buffer": 0,
            "byteLength": 27576,
            "byteOffset": 7428,
            "target": 34962
        },
        {
            "buffer": 0,
            "byteLength": 27576,
            "byteOffset": 35004,
            "target": 34962
        },
        {
            "buffer": 0,
            "byteLength": 18384,
            "byteOffset": 62580,
            "target": 34962
        },
        {
            "buffer": 0,
            "byteLength": 9906,
            "byteOffset": 80964,
            "target": 34963
        },
        {
            "buffer": 0,
            "byteLength": 55824,
            "byteOffset": 90872,
            "target": 34962
        },
        {
            "buffer": 0,
            "byteLength": 55824,
            "byteOffset": 146696,
            "target": 34962
        },
        {
            "buffer": 0,
            "byteLength": 37216,
            "byteOffset": 202520,
            "target": 34962
        },
        {
            "buffer": 0,
            "byteLength": 3504,
            "byteOffset": 239736,
            "target": 34963
        },
        {
            "buffer": 0,
            "byteLength": 19572,
            "byteOffset": 243240,
            "target": 34962
        },
        {
            "buffer": 0,
            "byteLength": 19572,
            "byteOffset": 262812,
            "target": 34962
        },
        {
            "buffer": 0,
            "byteLength": 13048,
            "byteOffset": 282384,
            "target": 34962
        },
        {
            "buffer": 0,
            "byteLength": 3144,
            "byteOffset": 295432,
            "target": 34963
        },
        {
            "buffer": 0,
            "byteLength": 11412,
            "byteOffset": 298576,
            "target": 34962
        },
        {
            "buffer": 0,
            "byteLength": 11412,
            "byteOffset": 309988,
            "target": 34962
        },
        {
            "buffer": 0,
            "byteLength": 7608,
            "byteOffset": 321400,
            "target": 34962
        },
        {
            "buffer": 0,
            "byteLength": 10104,
            "byteOffset": 329008,
            "target": 34963
        },
        {
            "buffer": 0,
            "byteLength": 38772,
            "byteOffset": 339112,
            "target": 34962
        },
        {
            "buffer": 0,
            "byteLength": 38772,
            "byteOffset": 377884,
            "target": 34962
        },
        {
            "buffer": 0,
            "byteLength": 25848,
            "byteOffset": 416656,
            "target": 34962
        },
        {
            "buffer": 0,
            "byteLength": 852,
            "byteOffset": 442504,
            "target": 34963
        },
        {
            "buffer": 0,
            "byteLength": 3408,
            "byteOffset": 443356,
            "target": 34962
        },
        {
            "buffer": 0,
            "byteLength": 3408,
            "byteOffset": 446764,
            "target": 34962
        },
        {
            "buffer": 0,
            "byteLength": 2272,
            "byteOffset": 450172,
            "target": 34962
        },
        {
            "buffer": 0,
            "byteLength": 318,
            "byteOffset": 452444,
            "target": 34963
        },
        {
            "buffer": 0,
            "byteLength": 1164,
            "byteOffset": 452764,
            "target": 34962
        },
        {
            "buffer": 0,
            "byteLength": 1164,
            "byteOffset": 453928,
            "target": 34962
        },
        {
            "buffer": 0,
            "byteLength": 776,
            "byteOffset": 455092,
            "target": 34962
        },
        {
            "buffer": 0,
            "byteLength": 288,
            "byteOffset": 455868,
            "target": 34963
        },
        {
            "buffer": 0,
            "byteLength": 1152,
            "byteOffset": 456156,
            "target": 34962
        },
        {
            "buffer": 0,
            "byteLength": 1152,
            "byteOffset": 457308,
            "target": 34962
        },
        {
            "buffer": 0,
            "byteLength": 768,
            "byteOffset": 458460,
            "target": 34962
        },
        {
            "buffer": 0,
            "byteLength": 60,
            "byteOffset": 459228,
            "target": 34963
        },
        {
            "buffer": 0,
            "byteLength": 240,
            "byteOffset": 459288,
            "target": 34962
        },
        {
            "buffer": 0,
            "byteLength": 240,
            "byteOffset": 459528,
            "target": 34962
        },
        {
            "buffer": 0,
            "byteLength": 160,
            "byteOffset": 459768,
            "target": 34962
        },
        {
            "buffer": 0,
            "byteLength": 384,
            "byteOffset": 459928,
            "target": 34963
        },
        {
            "buffer": 0,
            "byteLength": 1536,
            "byteOffset": 460312,
            "target": 34962
        },
        {
            "buffer": 0,
            "byteLength": 1536,
            "byteOffset": 461848,
            "target": 34962
        },
        {
            "buffer": 0,
            "byteLength": 1024,
            "byteOffset": 463384,
            "target": 34962
        }
    ],
    "scenes": [
        {
            "name": "Root Scene",
            "nodes": [
                0
            ]
        }
    ],
    "accessors": [
        {
            "componentType": 5123,
            "type": "SCALAR",
            "count": 3714,
            "bufferView": 0,
            "byteOffset": 0
        },
        {
            "componentType": 5126,
            "type": "VEC3",
            "count": 2298,
            "bufferView": 1,
            "byteOffset": 0,
            "min": [
                -0.0819405540823936,
                0.0177986808121204,
                -0.126892909407616
            ],
            "max": [
                0.0819405540823936,
                0.0750321820378304,
                0.10865144431591
            ]
        },
        {
            "componentType": 5126,
            "type": "VEC3",
            "count": 2298,
            "bufferView": 2,
            "byteOffset": 0
        },
        {
            "componentType": 5126,
            "type": "VEC2",
            "count": 2298,
            "bufferView": 3,
            "byteOffset": 0
        },
        {
            "componentType": 5123,
            "type": "SCALAR",
            "count": 4953,
            "bufferView": 4,
            "byteOffset": 0
        },
        {
            "componentType": 5126,
            "type": "VEC3",
            "count": 4652,
            "bufferView": 5,
            "byteOffset": 0,
            "min": [
                -0.085331030189991,
                0.0199691541492939,
                -0.0901619419455528
            ],
            "max": [
                0.085331030189991,
                0.0750699117779732,
                0.0897330567240715
            ]
        },
        {
            "componentType": 5126,
            "type": "VEC3",
            "count": 4652,
            "bufferView": 6,
            "byteOffset": 0
        },
        {
            "componentType": 5126,
            "type": "VEC2",
            "count": 4652,
            "bufferView": 7,
            "byteOffset": 0
        },
        {
            "componentType": 5123,
            "type": "SCALAR",
            "count": 1752,
            "bufferView": 8,
            "byteOffset": 0
        },
        {
            "componentType": 5126,
            "type": "VEC3",
            "count": 1631,
            "bufferView": 9,
            "byteOffset": 0,
            "min": [
                -0.110600471496582,
                0.0201924983412027,
                -0.0884572118520737
            ],
            "max": [
                0.11060044914484,
                0.0747416317462921,
                0.0850541219115257
            ]
        },
        {
            "componentType": 5126,
            "type": "VEC3",
            "count": 1631,
            "bufferView": 10,
            "byteOffset": 0
        },
        {
            "componentType": 5126,
            "type": "VEC2",
            "count": 1631,
            "bufferView": 11,
            "byteOffset": 0
        },
        {
            "componentType": 5123,
            "type": "SCALAR",
            "count": 1572,
            "bufferView": 12,
            "byteOffset": 0
        },
        {
            "componentType": 5126,
            "type": "VEC3",
            "count": 951,
            "bufferView": 13,
            "byteOffset": 0,
            "min": [
                -0.088872142136097,
                0.0179642681032419,
                -0.103844746947289
            ],
            "max": [
                0.088872142136097,
                0.126170426607132,
                0.113173350691795
            ]
        },
        {
            "componentType": 5126,
            "type": "VEC3",
            "count": 951,
            "bufferView": 14,
            "byteOffset": 0
        },
        {
            "componentType": 5126,
            "type": "VEC2",
            "count": 951,
            "bufferView": 15,
            "byteOffset": 0
        },
        {
            "componentType": 5123,
            "type": "SCALAR",
            "count": 5052,
            "bufferView": 16,
            "byteOffset": 0
        },
        {
            "componentType": 5126,
            "type": "VEC3",
            "count": 3231,
            "bufferView": 17,
            "byteOffset": 0,
            "min": [
                -0.115334250032902,
                0.0215222593396902,
                -0.0672019496560097
            ],
            "max": [
                0.115314856171608,
                0.0810368582606316,
                0.06190150603652
            ]
        },
        {
            "componentType": 5126,
            "type": "VEC3",
            "count": 3231,
            "bufferView": 18,
            "byteOffset": 0
        },
        {
            "componentType": 5126,
            "type": "VEC2",
            "count": 3231,
            "bufferView": 19,
            "byteOffset": 0
        },
        {
            "componentType": 5123,
            "type": "SCALAR",
            "count": 426,
            "bufferView": 20,
            "byteOffset": 0
        },
        {
            "componentType": 5126,
            "type": "VEC3",
            "count": 284,
            "bufferView": 21,
            "byteOffset": 0,
            "min": [
                -0.0715976655483246,
                0.0320459939539433,
                -0.134270161390305
            ],
            "max": [
                0.0715976655483246,
                0.0468296371400356,
                -0.0804410427808762
            ]
        },
        {
            "componentType": 5126,
            "type": "VEC3",
            "count": 284,
            "bufferView": 22,
            "byteOffset": 0
        },
        {
            "componentType": 5126,
            "type": "VEC2",
            "count": 284,
            "bufferView": 23,
            "byteOffset": 0
        },
        {
            "componentType": 5123,
            "type": "SCALAR",
            "count": 159,
            "bufferView": 24,
            "byteOffset": 0
        },
        {
            "componentType": 5126,
            "type": "VEC3",
            "count": 97,
            "bufferView": 25,
            "byteOffset": 0,
            "min": [
                -0.0786561295390129,
                0.0241167452186346,
                -0.122772432863712
            ],
            "max": [
                0.0786561295390129,
                0.0704199373722076,
                -0.0687582120299339
            ]
        },
        {
            "componentType": 5126,
            "type": "VEC3",
            "count": 97,
            "bufferView": 26,
            "byteOffset": 0
        },
        {
            "componentType": 5126,
            "type": "VEC2",
            "count": 97,
            "bufferView": 27,
            "byteOffset": 0
        },
        {
            "componentType": 5123,
            "type": "SCALAR",
            "count": 144,
            "bufferView": 28,
            "byteOffset": 0
        },
        {
            "componentType": 5126,
            "type": "VEC3",
            "count": 96,
            "bufferView": 29,
            "byteOffset": 0,
            "min": [
                -0.0270641949027777,
                0.0270290803164244,
                -0.112258233129978
            ],
            "max": [
                0.0269877817481756,
                0.0654107332229614,
                -0.075797326862812
            ]
        },
        {
            "componentType": 5126,
            "type": "VEC3",
            "count": 96,
            "bufferView": 30,
            "byteOffset": 0
        },
        {
            "componentType": 5126,
            "type": "VEC2",
            "count": 96,
            "bufferView": 31,
            "byteOffset": 0
        },
        {
            "componentType": 5123,
            "type": "SCALAR",
            "count": 30,
            "bufferView": 32,
            "byteOffset": 0
        },
        {
            "componentType": 5126,
            "type": "VEC3",
            "count": 20,
            "bufferView": 33,
            "byteOffset": 0,
            "min": [
                -0.0130715006962419,
                0.0438367538154125,
                -0.13960374891758
            ],
            "max": [
                0.013071502558887,
                0.0687002316117287,
                -0.103844746947289
            ]
        },
        {
            "componentType": 5126,
            "type": "VEC3",
            "count": 20,
            "bufferView": 34,
            "byteOffset": 0
        },
        {
            "componentType": 5126,
            "type": "VEC2",
            "count": 20,
            "bufferView": 35,
            "byteOffset": 0
        },
        {
            "componentType": 5123,
            "type": "SCALAR",
            "count": 192,
            "bufferView": 36,
            "byteOffset": 0
        },
        {
            "componentType": 5126,
            "type": "VEC3",
            "count": 128,
            "bufferView": 37,
            "byteOffset": 0,
            "min": [
                -0.10961826145649,
                0.0404678732156754,
                -0.0847378149628639
            ],
            "max": [
                0.109598852694035,
                0.0502787530422211,
                -0.0546599477529526
            ]
        },
        {
            "componentType": 5126,
            "type": "VEC3",
            "count": 128,
            "bufferView": 38,
            "byteOffset": 0
        },
        {
            "componentType": 5126,
            "type": "VEC2",
            "count": 128,
            "bufferView": 39,
            "byteOffset": 0
        }
    ],
    "images": [
        {
            "name": "texture-ship.png",
            "uri": "texture-ship.png"
        },
        {
            "name": "texture-ship.png",
            "uri": "texture-ship.png"
        }
    ],
    "samplers": [
        {}
    ],
    "textures": [
        {
            "name": "texture_ship_1",
            "sampler": 0,
            "source": 0
        },
        {
            "name": "texture_ship_2",
            "sampler": 0,
            "source": 1
        }
    ],
    "materials": [
        {
            "name": "texture_ship_1Material",
            "alphaMode": "BLEND",
            "extras": {
                "fromFBX": {
                    "shadingModel": "Lambert",
                    "isTruePBR": false
                }
            },
            "pbrMetallicRoughness": {
                "baseColorTexture": {
                    "index": 0,
                    "texCoord": 0
                },
                "baseColorFactor": [
                    0.800000011920929,
                    0.800000011920929,
                    0.800000011920929,
                    1.0
                ],
                "metallicFactor": 0.200000002980232,
                "roughnessFactor": 0.800000011920929
            }
        },
        {
            "name": "texture_ship_2Material",
            "alphaMode": "BLEND",
            "extras": {
                "fromFBX": {
                    "shadingModel": "Lambert",
                    "isTruePBR": false
                }
            },
            "pbrMetallicRoughness": {
                "baseColorTexture": {
                    "index": 1,
                    "texCoord": 0
                },
                "baseColorFactor": [
                    0.800000011920929,
                    0.800000011920929,
                    0.800000011920929,
                    0.0
                ],
                "metallicFactor": 0.200000002980232,
                "roughnessFactor": 0.800000011920929
            }
        }
    ],
    "meshes": [
        {
            "name": "ship1",
            "primitives": [
                {
                    "material": 0,
                    "mode": 4,
                    "attributes": {
                        "NORMAL": 2,
                        "POSITION": 1,
                        "TEXCOORD_0": 3
                    },
                    "indices": 0
                },
                {
                    "material": 1,
                    "mode": 4,
                    "attributes": {
                        "NORMAL": 22,
                        "POSITION": 21,
                        "TEXCOORD_0": 23
                    },
                    "indices": 20
                }
            ]
        },
        {
            "name": "ship2",
            "primitives": [
                {
                    "material": 0,
                    "mode": 4,
                    "attributes": {
                        "NORMAL": 6,
                        "POSITION": 5,
                        "TEXCOORD_0": 7
                    },
                    "indices": 4
                },
                {
                    "material": 1,
                    "mode": 4,
                    "attributes": {
                        "NORMAL": 26,
                        "POSITION": 25,
                        "TEXCOORD_0": 27
                    },
                    "indices": 24
                }
            ]
        },
        {
            "name": "ship3",
            "primitives": [
                {
                    "material": 0,
                    "mode": 4,
                    "attributes": {
                        "NORMAL": 10,
                        "POSITION": 9,
                        "TEXCOORD_0": 11
                    },
                    "indices": 8
                },
                {
                    "material": 1,
                    "mode": 4,
                    "attributes": {
                        "NORMAL": 30,
                        "POSITION": 29,
                        "TEXCOORD_0": 31
                    },
                    "indices": 28
                }
            ]
        },
        {
            "name": "ship4",
            "primitives": [
                {
                    "material": 0,
                    "mode": 4,
                    "attributes": {
                        "NORMAL": 14,
                        "POSITION": 13,
                        "TEXCOORD_0": 15
                    },
                    "indices": 12
                },
                {
                    "material": 1,
                    "mode": 4,
                    "attributes": {
                        "NORMAL": 34,
                        "POSITION": 33,
                        "TEXCOORD_0": 35
                    },
                    "indices": 32
                }
            ]
        },
        {
            "name": "ship5",
            "primitives": [
                {
                    "material": 0,
                    "mode": 4,
                    "attributes": {
                        "NORMAL": 18,
                        "POSITION": 17,
                        "TEXCOORD_0": 19
                    },
                    "indices": 16
                },
                {
                    "material": 1,
                    "mode": 4,
                    "attributes": {
                        "NORMAL": 38,
                        "POSITION": 37,
                        "TEXCOORD_0": 39
                    },
                    "indices": 36
                }
            ]
        }
    ],
    "nodes": [
        {
            "name": "RootNode",
            "translation": [
                0.0,
                0.0,
                0.0
            ],
            "rotation": [
                0.0,
                0.0,
                0.0,
                1.0
            ],
            "scale": [
                1.0,
                1.0,
                1.0
            ],
            "children": [
                1,
                2,
                3,
                4,
                5
            ]
        },
        {
            "name": "ship1",
            "translation": [
                0.0,
                0.0,
                0.0
            ],
            "rotation": [
                0.0,
                0.0,
                0.0,
                1.0
            ],
            "scale": [
                1.0,
                1.0,
                1.0
            ],
            "mesh": 0
        },
        {
            "name": "ship2",
            "translation": [
                0.0,
                0.0,
                0.0
            ],
            "rotation": [
                0.0,
                0.0,
                0.0,
                1.0
            ],
            "scale": [
                1.0,
                1.0,
                1.0
            ],
            "mesh": 1
        },
        {
            "name": "ship3",
            "translation": [
                0.0,
                0.0,
                0.0
            ],
            "rotation": [
                0.0,
                0.0,
                0.0,
                1.0
            ],
            "scale": [
                1.0,
                1.0,
                1.0
            ],
            "mesh": 2
        },
        {
            "name": "ship4",
            "translation": [
                0.0,
                0.0,
                0.0
            ],
            "rotation": [
                0.0,
                0.0,
                0.0,
                1.0
            ],
            "scale": [
                1.0,
                1.0,
                1.0
            ],
            "mesh": 3
        },
        {
            "name": "ship5",
            "translation": [
                0.0,
                0.0,
                0.0
            ],
            "rotation": [
                0.0,
                0.0,
                0.0,
                1.0
            ],
            "scale": [
                1.0,
                1.0,
                1.0
            ],
            "mesh": 4
        }
    ]
}