{
  "__type__": "cc.SpriteFrame",
  "content": {
    "name": "building-neww",
    "texture": "30e5f7ab-07c9-4819-acbb-1876b722e623",
    "atlas": "",
    "rect": [
      0,
      0,
      2048,
      2048
    ],
    "offset": [
      0,
      0
    ],
    "originalSize": [
      2048,
      2048
    ],
    "capInsets": [
      0,
      0,
      0,
      0
    ]
  }
}