{
  "__type__": "cc.Material",
  "_name": "Doremon",
  "_objFlags": 0,
  "_native": "",
  "_effectAsset": {
    "__uuid__": "abc2cb62-7852-4525-a90d-d474487b88f2"
  },
  "_techniqueIndex": 0,
  "_techniqueData": {
    "0": {
      "defines": {
        "USE_DIFFUSE_TEXTURE": true,
        "USE_EMISSIVE": true,
        "USE_EMISSIVE_TEXTURE": true
      },
      "props": {
        "diffuseTexture": {
          "__uuid__": "b80d9b21-b3d4-42d4-a066-7c32c6024c6c"
        },
        "emissiveTexture": {
          "__uuid__": "b80d9b21-b3d4-42d4-a066-7c32c6024c6c"
        },
        "emissiveColor": {
          "__type__": "cc.Color",
          "r": 199,
          "g": 196,
          "b": 196,
          "a": 255
        },
        "diffuseColor": {
          "__type__": "cc.Color",
          "r": 209,
          "g": 204,
          "b": 204,
          "a": 255
        }
      }
    }
  }
}