{
  "__type__": "cc.Skeleton",
  "_name": "",
  "_objFlags": 0,
  "_native": "",
  "_model": {
    "__uuid__": "beaf305f-fe9f-4048-9bf5-0316710e4cce"
  },
  "_jointIndices": [
    13,
    14,
    15,
    16,
    17,
    18,
    19,
    20,
    21
  ],
  "_skinIndex": 1
}