{
  "__type__": "cc.SpriteFrame",
  "content": {
    "name": "awesome_POR",
    "texture": "bc125c31-daba-413a-a16b-4c8e1eb830c7",
    "atlas": "",
    "rect": [
      0,
      0,
      344,
      51
    ],
    "offset": [
      0,
      0
    ],
    "originalSize": [
      344,
      51
    ],
    "capInsets": [
      0,
      0,
      0,
      0
    ]
  }
}