{
    "asset": {
        "generator": "FBX2glTF v0.9.7",
        "version": "2.0"
    },
    "scene": 0,
    "buffers": [
        {
            "byteLength": 27208,
            "uri": "buffer.bin"
        }
    ],
    "bufferViews": [
        {
            "buffer": 0,
            "byteLength": 2214,
            "byteOffset": 0,
            "target": 34963
        },
        {
            "buffer": 0,
            "byteLength": 9372,
            "byteOffset": 2216,
            "target": 34962
        },
        {
            "buffer": 0,
            "byteLength": 9372,
            "byteOffset": 11588,
            "target": 34962
        },
        {
            "buffer": 0,
            "byteLength": 6248,
            "byteOffset": 20960,
            "target": 34962
        }
    ],
    "scenes": [
        {
            "name": "Root Scene",
            "nodes": [
                0
            ]
        }
    ],
    "accessors": [
        {
            "componentType": 5123,
            "type": "SCALAR",
            "count": 1107,
            "bufferView": 0,
            "byteOffset": 0
        },
        {
            "componentType": 5126,
            "type": "VEC3",
            "count": 781,
            "bufferView": 1,
            "byteOffset": 0,
            "min": [
                -0.00922898389399052,
                -0.000269436510279775,
                -0.0254720654338598
            ],
            "max": [
                0.0152059132233262,
                0.041280310600996,
                0.00202926178462803
            ]
        },
        {
            "componentType": 5126,
            "type": "VEC3",
            "count": 781,
            "bufferView": 2,
            "byteOffset": 0
        },
        {
            "componentType": 5126,
            "type": "VEC2",
            "count": 781,
            "bufferView": 3,
            "byteOffset": 0
        }
    ],
    "samplers": [
        {}
    ],
    "materials": [
        {
            "name": "LOWPOLY-COLORS",
            "alphaMode": "OPAQUE",
            "extras": {
                "fromFBX": {
                    "shadingModel": "Phong",
                    "isTruePBR": false
                }
            },
            "pbrMetallicRoughness": {
                "baseColorFactor": [
                    0.800000011920929,
                    0.800000011920929,
                    0.800000011920929,
                    1.0
                ],
                "metallicFactor": 0.400000005960464,
                "roughnessFactor": 1.0
            }
        }
    ],
    "meshes": [
        {
            "name": "palm-angle",
            "primitives": [
                {
                    "material": 0,
                    "mode": 4,
                    "attributes": {
                        "NORMAL": 2,
                        "POSITION": 1,
                        "TEXCOORD_0": 3
                    },
                    "indices": 0
                }
            ]
        }
    ],
    "nodes": [
        {
            "name": "RootNode",
            "translation": [
                0.0,
                0.0,
                0.0
            ],
            "rotation": [
                0.0,
                0.0,
                0.0,
                1.0
            ],
            "scale": [
                1.0,
                1.0,
                1.0
            ],
            "children": [
                1
            ]
        },
        {
            "name": "palm-angle",
            "translation": [
                -15.0,
                0.0,
                10.0
            ],
            "rotation": [
                -7.32154019079641e-15,
                1.0,
                -8.14603424714733e-08,
                -7.54979012640433e-08
            ],
            "scale": [
                99.9999923706055,
                99.9999923706055,
                99.9999923706055
            ],
            "mesh": 0
        }
    ]
}