{
  "__type__": "cc.Model",
  "_name": "map-tron",
  "_objFlags": 0,
  "_native": "",
  "_nodes": [
    {
      "name": "RootNode",
      "scale": [
        1,
        1,
        1
      ],
      "children": [
        1
      ],
      "position": [
        0,
        0,
        0
      ],
      "quat": [
        0,
        0,
        0,
        1
      ],
      "path": ""
    },
    {
      "name": "map_tron",
      "scale": [
        1,
        1,
        1
      ],
      "children": [
        2,
        3,
        4,
        5
      ],
      "parent": null,
      "position": [
        0,
        0,
        0
      ],
      "quat": [
        0,
        0,
        0,
        1
      ],
      "path": "map_tron"
    },
    {
      "name": "floor2",
      "scale": [
        1,
        1,
        1
      ],
      "mesh": 0,
      "parent": null,
      "position": [
        0,
        0,
        0
      ],
      "quat": [
        0,
        0,
        0,
        1
      ],
      "path": "map_tron/floor2"
    },
    {
      "name": "vien2",
      "scale": [
        1,
        1,
        1
      ],
      "mesh": 1,
      "parent": null,
      "position": [
        0,
        0,
        0
      ],
      "quat": [
        0,
        0,
        0,
        1
      ],
      "path": "map_tron/vien2"
    },
    {
      "name": "vien2_1",
      "scale": [
        1,
        1,
        1
      ],
      "mesh": 2,
      "parent": null,
      "position": [
        0,
        0,
        0
      ],
      "quat": [
        0,
        0,
        0,
        1
      ],
      "path": "map_tron/vien2_1"
    },
    {
      "name": "vien2_2",
      "scale": [
        1,
        1,
        1
      ],
      "mesh": 3,
      "parent": null,
      "position": [
        0,
        0,
        0
      ],
      "quat": [
        0,
        0,
        0,
        1
      ],
      "path": "map_tron/vien2_2"
    }
  ],
  "_precomputeJointMatrix": false
}