{
  "__type__": "cc.Skeleton",
  "_name": "",
  "_objFlags": 0,
  "_native": "",
  "_model": {
    "__uuid__": "5dc58b3a-464f-4cf3-8921-bc2223c70ab2"
  },
  "_jointIndices": [
    5,
    6,
    7,
    8,
    9,
    34,
    45,
    46,
    47,
    49,
    50,
    51,
    10
  ],
  "_skinIndex": 0
}