{
  "__type__": "cc.SpriteFrame",
  "content": {
    "name": "building-new",
    "texture": "0da58bfa-99f4-42a5-82e3-4eaa0f96a89e",
    "atlas": "",
    "rect": [
      0,
      0,
      1024,
      1024
    ],
    "offset": [
      0,
      0
    ],
    "originalSize": [
      1024,
      1024
    ],
    "capInsets": [
      0,
      0,
      0,
      0
    ]
  }
}