{
  "__type__": "cc.SpriteFrame",
  "content": {
    "name": "1",
    "texture": "27674ab5-80c0-4eb8-bd18-acaafd123b45",
    "atlas": "",
    "rect": [
      0,
      0,
      800,
      1000
    ],
    "offset": [
      0,
      0
    ],
    "originalSize": [
      800,
      1000
    ],
    "capInsets": [
      0,
      0,
      0,
      0
    ]
  }
}